<?xml version="1.0" encoding="UTF-8" standalone="no"?>
<!-- Created with Inkscape (http://www.inkscape.org/) -->

<svg
   xmlns:dc="http://purl.org/dc/elements/1.1/"
   xmlns:cc="http://creativecommons.org/ns#"
   xmlns:rdf="http://www.w3.org/1999/02/22-rdf-syntax-ns#"
   xmlns:svg="http://www.w3.org/2000/svg"
   xmlns="http://www.w3.org/2000/svg"
   xmlns:xlink="http://www.w3.org/1999/xlink"
   xmlns:sodipodi="http://sodipodi.sourceforge.net/DTD/sodipodi-0.dtd"
   xmlns:inkscape="http://www.inkscape.org/namespaces/inkscape"
   version="1.1"
   id="svg2"
   width="349.44"
   height="401.28"
   viewBox="0 0 349.44 401.28"
   sodipodi:docname="6a.svg"
   inkscape:version="0.92.3 (2405546, 2018-03-11)">
  <metadata
     id="metadata8">
    <rdf:RDF>
      <cc:Work
         rdf:about="">
        <dc:format>image/svg+xml</dc:format>
        <dc:type
           rdf:resource="http://purl.org/dc/dcmitype/StillImage" />
        <dc:title />
      </cc:Work>
    </rdf:RDF>
  </metadata>
  <defs
     id="defs6" />
  <sodipodi:namedview
     pagecolor="#ffffff"
     bordercolor="#666666"
     borderopacity="1"
     objecttolerance="10"
     gridtolerance="10"
     guidetolerance="10"
     inkscape:pageopacity="0"
     inkscape:pageshadow="2"
     inkscape:window-width="1366"
     inkscape:window-height="713"
     id="namedview4"
     showgrid="false"
     inkscape:zoom="1.1762361"
     inkscape:cx="70.183603"
     inkscape:cy="199.50226"
     inkscape:window-x="0"
     inkscape:window-y="0"
     inkscape:window-maximized="1"
     inkscape:current-layer="svg2" />
  <image
     width="349.44"
     height="401.28"
     preserveAspectRatio="none"
     style="image-rendering:optimizeQuality"
     xlink:href="data:image/jpeg;base64,/9j/4AAQSkZJRgABAQEAZABkAAD/2wBDAAEBAQEBAQEBAQEBAQEBAQEBAQEBAQEBAQEBAQEBAQEB AQEBAQEBAQEBAQEBAQEBAQEBAQEBAQEBAQEBAQEBAQH/2wBDAQEBAQEBAQEBAQEBAQEBAQEBAQEB AQEBAQEBAQEBAQEBAQEBAQEBAQEBAQEBAQEBAQEBAQEBAQEBAQEBAQEBAQH/wgARCAGiAWwDAREA AhEBAxEB/8QAHgABAAMBAQEBAQEBAAAAAAAAAAgJCgcGBAUBAgP/xAAYAQEBAQEBAAAAAAAAAAAA AAAAAwIBBP/aAAwDAQACEAMQAAABv8AAAAAAAAAABn9UuFY764AAAAAAAAAAAAAAAAAAAABFh3Jw vPxjTkkAAAAAAAAAAAAAAAAAAAABliWhA0NR6M7WQAAAAAAAAAAAAAAAAAAAK0Ws2K1oTFejXXHN baP3AAAAAAAAAAAAAAAAAAAH4ZkPX8ua/EKllKJFNAqVu7AAAAAAAAAAAAAAAAAAAFJ6lGamhtK2 Fj8kyLr85NhiHuAAAAAAAAAAAAAAAfCfcAADkDuQlaQLmsZH4j9sr3azFrW4p6C0wAB8J9wAAAAA AAAAABVi3CBq9lPqjgAziK1fN6oEZuM5yFbnU5NOZcVoPta1UJMuACthqpRTUkiAAAAAAAAAABVg 3nSV9U5dGxcmn+4Q8ayjLWZsaSUoXNZVFpwM6nEY2O5JF5vs6j0RFd2ghWETXb3NhqAAAAAAAAAA AFWDedJXp7nMHe4OXtJ04Nxga14odhcyerRTaGktGzFnP4pUMpocSiA1Ve3/AE9S57g2GoAAAAAA AAAAAVYN50ldR6PC3aMVOZOi7FO8tOplvPSraExXo17k14IfhmPNfw7osKYv0TzwK8Pd2GoAAAAA AAAAAAVYN50ldTqM32eIO5AF+jOa8UP4ZAV/rNeaFTDdESt36d3qdM7dDatqLGitIZYluHu7DUAA AAAAAAAAAKsG86Sup1Gb7NBClPSmiBK1xigRSn5TRAla4x8JkTX4y7rxQ7C5kPX46a/EeyOZYluH u7DUAAAAABmoVrabAAAAAAAAAlQzrGR8QdFK62sy6wAAAAAAAAH+jUij3JzIsv8ACWgMAAAAAVst eXdtAY+4rMb/ABDVWjNFnLEtdinOxnLmtA9qWzMmHIruxZamIzIpwAAAARmdiU1awxokSFGalJ6m jxK0BgAAACC7WWta09jRalWa3m1VszY0kpVotZsVpKs62UeBO5HF5DM62keIO5HF5Xs6sUQAAAPh MlC3H3deSPU3B5YyAL/Qa90PUlSrfK3QB4Hj8MgZ3fDnbCWOjEEWudO6/kOjOZD1+HujQMlbsxQU pTwpPxnqbkEmuOu2Rcx0JzovX6oALM2JFuVEt5+Vb20roWABVu3nLVuxTvLTqubzqKgAAAATJZ1Z o0nqUZqaAkqe1OcmwxCJbWW9YAAAADvrmuND8Mx5r9GNcqH7IABlGWiw1rsQ7i5k7WiU1qCRkU4A ABSgpVE3oVSoTU7+5rGRgI1mMWtzTig1FdrVGh00AAAz+KV7N6WEbJGc+ilRymnRGwhkAAQ9ayir WTsaVUoWNZVlp+MagEhw90ADwBlOX/DBouSm8yMz6sU2ha6xdemAB7hz3BEt3JwvN5nU6jGZ3JUv OBnUciAAAM5CtXTep5GbzObVWs1vUEjPpnMIrX82AAAAAAAAANWqMx2cqq0O2tY6Ep3MuC0IGtbq EkXAAAByl3IGt3lzWWjx53Icv2JzXghw93Iev+s5c0wBS6oLlU/tABDx2Ajc9WZksiK7tdLdoLGj tKr9vOGra6xofSruazKLW8p6A0wAAABSgpRkpfulcKxn8UqGUvqSuSYoYUpqU0lpWYsVZt5z1bsU 7y0wAPDmPRfohrkQ+4yeLRyd1+I9FcyAr8dd2OIdEcyCr+SNhaHuAAAACLzufZWFrXuHNeCOVVbg LvuHNf6H2mQdf0hrHQyOL/ca80PTgAAqNbz6q3tpdFM76t5Sd2SdISlICg0QJcedpAU9U5dGxcmn +4AADnRRmrVE2J9sV7N9ic467NNmFjVtaehFOqNvO+r3tzgjujxK0BgAAD4TJWtxp39E9Ua8EOdO 5AF+qODyp5V3qjnsHIvtd9cvpSsWZA+EqVbozU8O7Pti/wATkK5lHWh21IxzWohlHWjK1NJn4iFj QmIzq4RAAAAgm1lvWHYnO/Ocdd4C7pKRO5tVRp2RnwzVG3Rapz92dzOgNKRbnH3aFlKzG/3C7ZO4 5P8AcM2ytZjc+2NQKWZBWvJvqDn0nJnRZmxpJSAAAA4C7kCX/h6hz2Z4Y867rGQ/pk4XGuNCTLkX nc9CsO2upuXuJ2msAQkaz/KRfa765a4nRMr9x8JcqnTUpPdjUKlBhrLUt+4fhmrVGY7IAAAzCqwL b/pL5nVejD1rKKtM9n/JEBr4Sb7MjGaolBcOndgn7cAA+EqjborU8C79xqU5HMr2vh3fuNb6EgXM la3D3dSCWWFWTTmsZEAACArWX1a11jozlLimjxK0BjOKrV62Lo0+PO1etifbF+yci3AAAAKo2876 tvKegNOgFSoFS3ZPQMnUq3ntVvUTuoTo4UpKU0XJWnMAAfCZHVuVO6+UP2TIUv8Aca/kOeO5AVvw Hdl7z/C7kIW9wbDEPuAAAAPwzIOv+Wa8UP8ARkMX/DNhKH+zIAv+IaV0v3D8IzNq+4NHaX3AAgW1 SspaCxa4wK1WqjFLuE7xE6RFKPlL2E7pE6bG6Flb9krhmAAAAKQlKQFNECVrjFFClLSmg5K25igB SoJQAAAAAAAAD9w14odTcyJr8+NeyPRXMiK/NzX+h0UAAA467kBWky5rBR4Y7kYX78zrUR+4q+b+ EAHwmfxX8MF2CffXBTc3GNoWMsWKMgAS1Zk05Wi1mxWtXY0SpQCazALW1saEUgAAM3itYzeqxGaD OaxWtZvUejO1kAACmxuhZW1Ziqlux1jS+lGN3JavN9mPDv5prxQ9uAAAZXFoUNayEJZOZfloJNa0 UJOuAAQvayprWZsaSUoRtZX1h29wAAAcsd7g5riQzwK1YN6kEaUVIVta40IrtZtlepufuAAAHiDw 7s1GdVCMdHcji81GdTSIA/hk6WjK1r6Q7M5QUpFdoAARKd8q72PnPt65W70ZzXih5R3IYt/s8O7c SnfmnUa3n1V6S56g5weVdkyz0YAAF9aUsnKDVKdVNLCNkjIFU7edtW79O71MAAACqJvPAreYndgn SupRWpdineWnS6pRKp0ZzX8h/wATHyv9xr+QGQxf9814IfuAAAA8OZAV/YmulD9w8QZDl+cu6A0v 3AAAAD4iglT/AIl/afxFBKh3XKh2BzI2vcsnbSxnuVqUbsKYsjZgS1WQ3ZMxYOyAAAAK22q9m7zU 7r06JVKXVAAAAAAAAALGmNMSUSHZUuRudyYL/CAAAAAAAAD1Tmv5Hhrv4wAAAAICNUuqX7JSncpQ Ugi1eYnNFmlBSCLWp1Gb7IyxrQfa0cpdkczwK8Bd0eJdhcoJU5W7pKSAAAAA6Q5JdwAAAACrBvOk rqdRm+zwJ3IUvJJnWkjxB3IevItnWojXi1mfWtBY0dpVxtZn1rNGNJCQyxLcPd2GoAAAAAAAAAAA VYN50ldTqPRnKCVYJNDRalaexRKpS6pfslUApzI1+I9IcyHL8Cd9u5dIncQxl7W4e7sNQAAAAAAA AAAAqwbzpKzgZha0La066G/hNfSHzGQ5flbovWSumYp/boDVtPYiE7G1rvrn5R/3NhqAAAAAAAAA AAFWDedJUT7Zv2SkW5V+3nDVulTvXTqxbzoq99c1xoeWMgC/RjXggKm26M1PAu9vc2GoAAAAAAAA AAAVYN0vKX6pT7ZAGUtaKbWuNDvrmUZa6dOxJnPcpUopp7RsBZA8OUgKV7t6/wBAAAAAAAAAAADl jvRXPuAAIku5OV7H2NLqXEXe3ORldyVrztZ1AogADkbvXHAAAAAAAAAAAAAAAM6StWDepBGdjIyz LQqa1xoSLcAAAAAAAAAAAAAAAAAAHK3cg63anNaiNdTWaZa4NO/lMAAAAAAAAAAAAAAAAAAAUuKU TKX7JVCKeKNfyHuAAAAAAAAAAAAAAAAAAAAfiGRtfgTo0JJW1MAAAAAAAAAAAAAAAAAAAACuFrNC tKBnWcj9wAAAAAAAAAAAAAAAAAAAABlwWusTnGyAAAAAAAAAAAAAAAAAAAAAIQtTeZAAAAAAAAAA A//EACcQAAICAgIBAwUBAQEAAAAAAAYHBAUACAIDGAEQFxYgMDdAFVAR/9oACAEBAAEFAv5tlG1L lFyxOIzDC/8AluU9+OgKTJkzZOuDGjgpp/y38w/r499tf2VwYAV/ydl2V0iYjiIRvWwKklHrIUv1 Owe9aGcaTGmxv+PZ2MOnrWKdWLGLBAWtDYkGh6tFKDaxadXfCzVRjyLup/4+1zK59PXmra19KAfy fBiWcFnA8leGo0Q2QnfjRDWldB/d2yY3Rz+47M6sBFrq6tCK1TIF8iHsaNHhR5tlXVvtscuJJ2FZ quyemiuPukSY8Th/Pt1+t17tKVj2ChuJnEL7NnmVwKijEEvPj8DzZBqy74zUbC4MsKzYFa81+axp MmFJUjC62YFfYx9lgwT6KtmGbEaf8+3X63ykvLYbtVrtd193Ous624h47WZ1LQOzWdZ9pYV49WVz WwViAYX0Ce42F90MsMkxpMKTr8yua/NfY9coEusYb9PGB7LL9kfz7dfrfJIWUxBrAVili5sVpswJ lnU6mT3skzrK2bc2S7Ba1dCkmTHhx3MwOTFO/bWhmdRaJ5tWuY9La4mX0NfHbK2kIr/nJkyJkiLF kzpJGOXIlcrL9kfz7dfrfNeo0aakGVq2P3/oVBhQEWHtqituHdzzaVl8qCjxEI3rYFSSj1kKX66O rJcllZYw7itJR6tK6AlHrIUv/Zc64Gp1HB1iFLyNsf8AudZfsj+fbr9b5rh+mMY3WHfR0rt6++SE Ck04LBsfrRShJSGtFKAtKbU1IwoVnG5UND9aKUO1i06u+DmpjC9trVv0SKzNUuAbKL/bY/8Ac6y/ ZH8+3X63zXD9MZtOzvS0ss1bWvCgHM2oZnC2s81cWvCgHMkxo02M0ASUujSssptNZLs5rWKKSY0a bGZ4NJXhrWWU2msgE1qmALZsf+51l+yPybLLiQKGn8aZAvkQ9jRo8KOSFo6IR82MWPqciX8fHj68 vVYJQUGQplA0JiB1nWzaeyjdXDvk+IrIzxFZGeIrIzxFZGeIrIzxFZGeIrIzxFZGeIrIzxFZGeIr Iy7qe+husjalMzvjeIrIyyhf5tjiKWvNbBWP5h/Xx7r+yuDACs2CWvJfmmLZOEDTjeIrIxkJ4wV/ suEoSNCt8RWRniKyM8RWRniKyM8RWRniKyM8RWRniKyM8RWRniKyMZKcIFZGzVtcciAl9trlrw6e zNYmVzKxf8OwDH4gARmrS9+oSvNmGZ1CQnms6z7SwrzZdldImI4pWD3LQ0jSY02M01/DZIdJjSYU lTsHvWhnGkxpsZnA8ZhhdnWzaeyRrK+NTP8ADJkxoUZtMLtZZoND1kV34SKQgcU9rukqiOqNxSaD lYKYWQGVUl3VEdVhvs9NByzzKzzKzzKzzKyw3BKOyT5enWMFgXzKv8EtkTIKHPLpkYdnF2wyOsrZ tzZAQVVL8Xs7GHT1rFOrFjFntqqx5F5UZtMsP8yywN2QYYXQeXTIw7NJzAI8FdnzsXoPL06yFuPN 4RvMrPMrPMrPMrFaczWMJ5tUx5FHUZqms+rohfZtEuvUlFc1RZXDp55tKvPqEV/GhS+pC2Tm1zK5 9PXmtaliRRFnA8leGo0Q2QnfjRDWldBsQYUgwuPxrEHksM1rK6HT1pKQ1opQEpDZFl+sQeSwzWur 4dTX/a7Vn2rQxrLKbT2S4OYDFEfX09OXo51zIXBrishKpkh3xkt8+Mlvnxkt8+Mlvnxkt8+Mlvnx kt82cVUETsMVr5icVFd3dqR2yaAvkQ9jRo8KPscuJB2F5qsyeijt3azO1lmNZWzbiyDUsCjYx8ZL fPjJb58ZLfPjJb58ZLfPjJb58ZLfNjrES9TTNaVzHFArNqGT03txmuK4kggV9zsWnUyw7NaWPIFD PHst+THCc14ZfUvzH2+TVvnyat8+TVvnyat8+TVvhSTqIxHrOD/mWXsgZa3AQL5NW+fJq3xzUI5S HftrHXgtbYfJq3z5NW+fJq3z5NW+fJq3ymJhsj9nOxo64CsQC9+vj3G2wutZhUmTJmydflrzYBr+ DaBccRcpxAsL6+As2YWnaJlma8svsYIdmxS26QEz/kSC04rUNx7MngyDWNGkzZKaAvjsCzYFlc2A axo0mbJVC+jLUM/AcCUE5FLyktRu2Th/6rg7jSY02MxAWtYopZ1s2mslgcyV4axpMabGZwPGYYXK iyYMmmhxLG38Nc8Nc8Ncs+iFFsqytm3NlG03kco/hrnhrnhrnhrjhRE1U1uJ9L17Yg+GueGuNlE1 qqoM1hWvAqKM2dZXMUF81bWvO/Is2NZfMGD81UXMe6tfxbXLXn3deass/wD1K3NuRapqyLNUmNHk 1ObXLiRHtc1nZfUWCebSMP6cFM1RWvDu5/aSj1aV0BKPWQnfrE4krw1rbGHcV0mTHhx3MwObFO6q rnXdmBhdUAC9nZQqetPTW1YBRgAPVQoF2djDp60/NrRglIyPWRZfjQ9WilB+E/cIKt/RlPU1ZPDB ohshO/HTOgJhNnHElhmuDRDZCd+JFFUaDpKPVpXQGIrZBJOujqxXJZILR2ILm5XNOCsDCrY/KKWm qx2q+7albd97UZqmzOrvhbSMrhQDmaoLfl1cM2zYXvq2yuF+ObZsL2pLu2G7Za7XdfdzrrOtuIf3 FBaOhdUzNprm/wCqTJkzZMWLJnSbHWpg04VkI7I4AVnUkCfsVWassvqoLnNpFrwvxzOxkE/avs1i WvMUF/vkxo02M3F7zWZqOEFmK3paU2pqRroFsWMWVldDp608NKoAF7Oym3NkugWyYxYxQWyXJYJF NqFEdnZTbmyXQLZMYrYCfOFvywHZxqvJKw2MEzn7JMmNCjMfauppJBCS35ZZYs9eTFg9QGrgxcRM dqz7VoY4q1/MZRj/AJlb/muUC+Oz2NJkwpPke5sk7DN6ZH9kks+xlmP4dgFrwYAV7B58VAMnyPc2 GDRPD6Nms606hMT2YWfUWCftrmuJAGFyY0abGZmrVLf9pKKkIdaYtdgTRf8ANftMOZMPDcFHWFSM zWcrE+3Kyym09ktNrY/dldZ11xDzaBgQy0xzXll9S+Mc2RYfSbm+dAQaSuj1ATr09PbV9gQxIx/C zjiMvAv2q6O6u+f0Ad5Z09tS9+JhjR2OFOdjR1wFeykYXWzArD9wgq39Gg6yto+woEFhxNVmstKJ dvuxEICMH1YCfOVvywHZxqvJMzbOulAWcYsnlGzq2W9fVM5r0tOLBMsf7G4gANn+ZZf5uJBl8WUG /g2KZPSfGUaNJmyZUWTBkoxlei2NMdi06mWHYi2VxWxo82V6Mk0ixZM2TiIaXxoWMzaa5v8AqkyZ M2TFiyZslcao2siQPjdCKVv2yY0abGZmrVLf9pILEIfZ5GjSZskTStHUqklHrIUv8jRpM2SqV9FW obJkxoUZuMLmyzWjo7UktpqaoJqos62bTWSXY8hcGv37DMzsXwdmra1535FtYs+3omZrEyuZWL5s 8tuAqUe2qaz7e+Zs8teAqUeyz15MWD1L9WBy2h/h2tMKSvD81UXMe6tc29iD3QSZqquOi7ts2lZn bQUuapLT06Y2bXrjj18s1aYX1EKfbJkxoUZqMCYyjEaHrIrvw4WrQkZIqCsKaM3FJoOVgRrar8or LKFcVp2GVZ8LWtZOpLPAyGPwBI6D608Frukthu2XxLGDzWNJjTY34bOyhU9awDe0YRUECk04LBsf rRShI7+tFaI3K5pwWDQ9ZFl+MjtYJUBKQ1opQFpRampHRdVT33dY/UZT1vkemMs34i7mts+iFFsg grmg5XG2UTnfH8j0xnkemM8j0xnkemMfj+oyEbzXUkVITz8j0xnkemM2MNFUwqvNTmL6cfXNsl5/ 76Zqmy+HfEza1cR5NTmq7M/06z8O2bC9tW1twoBzNrGXz7peatLLnQ02bVMnquLT+OssptNZLs5r WKKWddDuK1kA09dF47f2YteBJXCOBSTGjTYzPBZK7NBohshO/EiiqNB37zw0qgAXs7Kbc2SYXMlj mvX19fV1ss4hrsNs7KbcWSjXvNmGsaNGhRsk6nAE2T4irfPEVb54irfPEVb5J1OVsKNZ/wCb/pey x19VrDC/EVb54irfG4NCAeZ+yIWS9aHp4irfPEVb54irfPEVb54irfFsrKRWxs2XWvSWCGatMbkP k2bDrTtYAbmrLM6qC5+/Zpl+pWVYi1rzWwVmy7I7ysyzX9a8F+Ffftaxo8apxb6/9pcqs1uZnYGl +N1g8FqEyZMmbJQSrjMwoPwm0XxSEFc0HLBsgrSuh+99rr0Xp1x5evH1TDF6GME5sMs+pfGMaTJh SVCwOLJCPtejK5rYKzWdZ9hYV4/WH8fgft8msjPk1kZ8msjPk1kZ8msjPk1kZ8msjPk1kZZWdlcT VWv5jKMY0aNCjbSr36eK81/ZXBgBT/Yf18eRo0mbJVi/hrYO2YWfUWCeVx0bU8L5NZGfJrIz5NZG fJrIz5NZGfJrIz5NZGXJMSEfsiGRwXBtjTX8Nkh0mNJhSUAw/oE8+10MeSxzWsrZtzZAATVr4Wxz K5zsQ98cHPnjg588cHPnjg588cHPnjg58u6S2G7bIq7YE2N8YsnLKssqaaBmtqAFFJd1RHVGwpCO BQjH7MVvaQkuhz21YWPrY2WbUsnvoqfKkNL7+L8YsnLeiux6TgsnGSaVPjg588cHPnjg588cHPnj g588cHPiY6jauCc2oWfKvs81qY0csCvfaRj8R8azUxe/i2kWvC/Hc1RZXPu682tWnp3xs1RZXDp5 5tYs+rvhYJC1qakY0PVopQFBJWCA+SkNkWX4kLWpqRjQ9WilASkFaKUJqVTjcqXQLZMYsrK6HT1v 4CUerSugLRa1CiNanM1dmNZYw7itwkIK0UoTcrmnBZG4xuUms2oVVPW+XS3zy6W+eXS3zy6W+eXS 3zy6W+eXS3zy6W+eXS3yTtirpke97anvu6e3sqC0jbeAHKNZ7Uqq4rrP/N/0qyym09ksziIwwyyr odxXM4Hkrw11aWfZQUubTMzqv7nEOyQRXyPLpb48n50siBiHai/Vsby6W+eXS3zy6W+eXS3zy6W+ eXS3zy6W+eXS3zy6W+eXS3x8MkEaEjNUWVz7uvNrGZ298z+PXFneoSW40FBQtDlGjRoUZwMDitwa TJkzZP8AFR3dqN2wQVwjgTsUCpbaw8cExnjgmM8cExnjgmM8cExnjgmM8cExnjgmM8cExnjgmM2M Uy/BAnEolFkWrLxwTGP1VxlmUYil2nGSFeOCYx+quMsyjECwvr4B9n+wvr49wB1kBIYt44JjGdyD /rXAPWQDhC/jgmMdY5TCTNBa2FcG3jgmM8cExnjgmM8cExnjgmM8cExnjgmM8cExnjgmM8cExnjg mMp1EDD0b8e3X63zXD9MYzgeMwwrv6O6L3qFg81qbRpMabHZwPGYYVKiyYMlRsLmtDWNJjTY2yDM 4BgfmsK14FRRmyDL4Bgfmr6/hlph7bH/ALnWX7I/n26/W+a4fphhNsKWfWytgTVgc/bVlhfUInm1 iz7eiZmtrd6O8TZRzNYhjR0lqSWwOJQQYUkyY0KMzjiSwzXB4lvxSyWm1kLv6q+xr7aHsf8AudZf sj+fbr9b5Ce5XRrqTJkzZMaNJmyVzqpbXcc9CrVflAQVzQcrob2rJqckH60roTcUmg5Z7aprTj0R c2oZnZUVeKbXPqYgOwVQZrWRgOzjVeSWEY9p+XLL9kfz7dfrf2WevJiwepfqwOW0PNnVrzKxfNU2 Xz6ZebSr36iFMWIPJYZrWV0Onri0oqgsdJSGyLL9Yg0liGsaNGhRpMaNNjMnVanve8kFiEPs8WX7 I/n26/W6/VZiypiz15Dl92/Y8FpyWplWWU2nslkcRmGF47Vp2rQx1yWXIGEc2mZnVf3Oa7LbuAQz 3IRqgK61jap2tZ6LyNJhNL+cqDaA06o0aNCjfa6FzHY4VmtrL7Q4xw0Xw2e+zcYXBaBUmTJmydeV n1MEx+4gBRUmsP79pV79PFea/sngwAr2f7E9T47jRpM2SrF/DWwd/wAY3FIRwKEFDaDF0o2FzWhr GkxpsbZVjRxMKzVdZ8bWz/5G1iz6u+Hmtrd6O8TZhxKYhmJC1qakY0PVopQf8izrodxXM4Hkrw19 tWln20FL/wArZJa9ZiHYn1/yZBzGjRoUb/l7ArXmvzVALv0AAT/mO3+j/8QALBEAAQQABAUDBQEB AQAAAAAAAQACEBESQVFhITFxkbEgMPBAUIGh4TIicv/aAAgBAwEBPwH6Zo4dfCIo/bGizDhY6fbG ihLhR6/amCz0hzq5LmiLH2oChSJriuaYcoeM/tDBn2h5y+XINhHiuX2YCzUOND0NNHrDxn9ezn+E WacEQRz9LBnr4hxsw0cOvhEUYabHSCKPpDSefBUAD0P1DOf4jmizTtLRZh5oVrDRZhwsQDRhwsdJ DSUGgQeR6H6hnP8AEWOWcEA80WEcuKaKEE2YaKEvFHrDDlDm8eAQZrPNHkeh+oZz/EO/0UH6oG+U vOXeGDOHOqv2hxRFio5IcZLgN0SSm/5HzNHkeh+oZz/EO/0fmUC74QTQtc1zQFcETQtc0w5Q8Z94 Ycoff4lv+R8zR5HofqGc/wAQ7/R+ZQwZ9oecvlwwZw85fLkGxBFGoBsQRRqG/wCR8zR5HofdabHT 6RxoRVw00dvpS4koGjOMbrGN1jG6xjdYxusY3WMbrGN1jG6xjdYxvOMbrGN5cbMNFBOFHrDTY6QX UsY3QcDBdWqxjdYxusY3WMbrGN1jG6xjdYxusY3WMboOuHnL5UsOXaHiuOvn2mizDzwrWGCzekPN CtYYLN6QRYgGjBFiAaMOFj2wKC5ImzfoBsWiLFSGWLv9LBv+v6sG/wCv6sG/6/qwb/r+rBusG6Aq C0HjxWAboCoJuAKFS8Zww5doLQVgG6ArhBYCsG6wbrBv+v6sG/6/qwb/AK/qwb/r+oijUMGcPOXp YeNaw8Z94YeNa+44WIYM+0PPGtPKBsLmuSaOPT3CaEc0OCJoetpsQRRqGmxBsHme6s6nurOp7qzq e6s6nurOp7qzqe6s6numG+EFv/XDP4YcaENNHrDxmmihBcVZ1PdWdT3VnU91Z1PdWdT3VnU91Z1P dNuuMONnpDBnDjZ6etpow8WL0hpow4WOk0dD2VHQ9lR0PZUdD2VHQ9kARke3odZPIqjoeyo6Hsm8 uMvvkAqOh7Kjoeyo6HsqOh7Kjoe0tFmHGhAFmHGh19lh4VpDhRhhsVpDhRhpsdPpXGzDRQgmzDRQ 6wTZ9kGjcOFiAaNwRYgGjOPb9/xY9v3/ABY9v3/Jx7LHt+/4se37/ix7fv8Aix7fv+IOuHOrJY9v 3/Fj2/f8QdeUPNcNfENFm9IecoaLO0POXtsOXaHjPvDDlpDxnDDlDxRvWGDjekPOXf1clzRFiWih BNwBUHnAFBclz9oNJQaBB4quNIChB4o8FyQN8URYVcaQFCkTXsMOUPGaYM/lw85d4YM5eM/lpgz7 SWadvYAvkgzXjOMXX7iuNxiF18uHjOGHL5cVxuHmzWnsg2FzQFcETQuALgmggbFoi+EE0LQcDBAK LSOnpDNVyguA3RJMNNiCaENNiMLdPKwjTzLjQ9ppo7SQDzWFunlAAcoebNaJho1rLjZ6QH6q7gtB 2RBEA0g8Hnwks07SwUOsOFjpDRQ6xY1CsajvLxY6e0BZ9FjUd5cKKaLMkUYDSUG1BIHNF98vQHEI OBggFYOO3ow/9bc/5DjQ6w0WfQ4UfZaKHWXCxDTRhwsJooS4WN0GayX6d1z9YfrxV3Jdxtc5JswB QjFxuHCx7DRZ6Q85fKTDlDxXHXzDDfDTxLzkmG+GniS4DdEk+0wcbh5yhmcPOUMGcPOXeGHLtDxx vX1gUFyRN8YBsWiLgGpPPigaNwRY9wCgiaFrmuaAoUuS5rmgK4Rhdp4WF2nhYXaeIIsUsLtFhdp4 WF2nhYXaeFhdp4TW5mHWeSwu08LC7Twmgjnyh4z7ww5doeM4Ycu0PGftMGcPOXy4YM+0POUMGf0p FGoBsLmiKNQDYR4oiuHsAXDjQgCzBNCcZ2WM7LGdljOyxnZYzt6C4g5LGdljOyFkcZcSFjOyxnZY zssZ2WM7Im4aaNaw8Z6Q00esPGfsMFC9YcbMMFC9YcbPT2GDOC6j5+bQ4WNxAFmHGkDYRFily9hp sQ4UYabHSCKPqaLMPNCtYaLM0NB2VDQdlQ0HZUNB2VDQdlQ0HZUNB2VDQdoJoQw8K0hwo9U0UIJs pho1rFDQKhoOyoaDsqGg7KhoOyoaDsqGg7KhoO0uFiAaMOFj1NFCCbhpaBzWJuvlYm6+Vibr5WJu vlYm6+Vibr5XOLGoVjUd4IuAaNrmquHnLvDBnFjVWNR3nEAsTdfKxN18rE3XysTdfKxN18rE3Xyn VfCGHLtDxR6+hgz0h5y9phy+XDxn3hhy7Q8Z94YcoJriuaHFckTXFc1zQFCkTQv2uSBviiLE80BQ qMB2+fhYDssB2WA7LAdlgOywHZYDssB2WA7LAdpwHZYDt8/EkUYBsJ5yhgzhwJWA7Jra5w4ErAdl gOywHZYDssB2WA7LAdlgOywHZYDsmgiHjPvDBn9I4WOkA1DRZ+k5oijSxHVYna+Fidr4WJ2vhYna +Fidr4WJ2vhYna+Fidr4WJ2vhYna+E0knjpDnEFYna+E03Di4HmsTtfCabhwoy0UILzksTtfCF1x gvOSxO18JvEI8j0WJ2vhYna+Fidr4WJ2vhYna+Fidr4WJ2vhYna+Fidr4WJ2vhYna+FZ+Ae4zn+I d/o/MoBow4WIBowRYhos7CHmuGviGizsIeaHWW/5HzNHkeh+oZz/ABDv9H5kgCUGgby8cb1hhyhw 49fKAoQTZuAKEc0WaQ3/ACPmaPI9D9Qzn+Iwi7Ml+iBtEWKjkgbFy85QwZwXUfKBBggFAUKR5Hof qGc/xJcBuiSYYa4a+YeM+8MPGtYJoQBfBckTQkP1V3B5HofqGc/wiQEXE7elpsQRRhpsJxs7QwZw 42eno5IP1R5HofqAa9bTRhwsbiASIAsw40Ovrs/YGHhWkOFHrLRQgmz9nBo2uaIsQ0WekPOXf7Sw 5Q4cb18oCgia4rn9qBsS85fa2mjsYcaH21psdE42ftrc/wDyfqP/xAAUEQEAAAAAAAAAAAAAAAAA AACw/9oACAECAQE/ARhv/8QASRAAAgIBAwMBAQwIBAQFAwUAAwQCBQEGExQAERIVEAcWIzU2N5WW ptTV1iAhIiQlQHa1MFBy5jEyhrYzQVNWcSZRk0Jzd4PF/9oACAEBAAY/Av5at0rptzAl9C2qlwd4 PCY89YKRzNeQDYyz2xp+BiKFBPYz6qSyWfUJwVSYptTCyGLZw8a5UDmGMI3anYVivsRbdIsEhOzt cJo+W51LaDJ4xkft/llrdgn427XjTaf/AGfL+MvjNssftKOrfw1ULdttOjiq56fwJFgRoXdhxxg7 bjZystNMlmdllk85FOwwcspFMcxZSIUpJSmScpTnLMs5z1Ovt2wp6c1UEaFgyzOAlkLFbdJTWJzc UxIhwUrNYXudJEMLXNlYH2a2Pj/lbnBZ3tO6d3KWj2y+azGyT+JW4tpxtMvqbsZcZ5XY5lMrT74Y mDn2rquHMbU2lgqVl/I0GJZahLkDqLXmMHak6axTTlmwMQ0GJWy9gWSoFTJSP/lJtJoFjnUGsVDq SxAi0p12n5ywCzaZXKNifjaByxTpZ218yzOwcVcgzVbc+tS3upFjq1J6tqo0o2UbMYSvC5nGeoFo r2KBHQaeICIMqngSss2WmFsnierZHG205bj2rCneMkx2geAjbUvgm1eSFc5EXgZG4geYBclI4GIx xAsekNRRhM9cSE6y9UCMEztUrRAkZgvv+OIsrmXWfW8Tq7x1BqmZgodjEl3E2ANptgEyq0sWB1mV jwiUDC5xSkIwDClEgijlKBISjOEsxzjP+UWFvYm49fVIt2L7G2UuwmiCbLRtoECHJtAFOe2EZCz7 eI4SlnEc2OqLGHG5O0BCuiwdkFXWqw21UgTPL/W05II1gM2TTro1FuTkManS9NgWbC3YyIUjkiIA BBCRpxo05fr2k0gMNEgLBGCwDkSwTsTEGdTpyoFtV1OkFJfvAECm24/CttcYK4SOvHyRx88AD5Lh zsSjiZZdD902rj4NJcCr1KCAkxDOkQslq+6IXyCyZ0DRk6Y0fF4p0zV3hw1ag2TdWGgrhszT+ngQ foSHmQxM6d8gplr8T43jANI3NWK3JdIaa1qFJIAkajGIf5Ot7mdScOcNhBZ6sziCx5wHFkLVJVYJ vkKkfdWxbPCmquzJaVIRdqSjbgDdT17ZhJC51QtNerGTlCypprkCJGc1ijBDJLlpQT4j/vYp1Yqt hJgeHHBz6crXwQaRsFWEXVid9thRsUwMAn2zjPgUJJjl2zjPaWe2cdXOmi4NJMBuVStG885epG85 LXMb8lEhsnGPulYlVBhSNqo+uDMog79VOpKgm3Y07oXV+8jxEbbz8Ko1xjLmIk8DJE3gQOLkJnOD M8RJnqp1HUE3a+4RC6v3mCZQ7sfhVGuMZgA3kT4Im+CBy8Z0B15SzMUv59YR2ABK6eSyYylgObbM VmHJLrQnLEjnioo01IQsSnhZZg+Y7QSSj+la6mtSC8EVycJQhpBna2khz4FUCYwNEiV08cDyWKx4 qA3nmIYUVOSD93dOFsLSzYm062bx8iln/wDaEMREEI44iJdcMBrrAgNdcQwjhCNVSnH506ne41D+ 1496ZAgt5b9hxJnHqbJVKndSLJpPn8+ApjUL2XTTXCoooESyqqwoAXWXBDAgLrgFiIwhCOMRiEOM YDhHEY4xHGMdKeo2CSHPdBWo81oCvNsWvLi16m/OHIdZ8J7CofM5vGW3CXjn2Qep1DO6j0qYr9cq tAhmX69rAhXNcuDDIRyPMYVbIPZdx4xKqNbXh3bGXl03oG2NEVfqVqLlGcpFwhX1BgMVyqTlIUSE leLBUAr5t+MHkFlFFCMWxJ4/SwVpgKw5GWWiRgsAwkw6wJNNfEySjHJm2zgVWFjPmdgwgCjIhIRz /L0n9cVv9h1L0tW6zB77aeGyHn94L6kUBHhg8+T2wrdbCwWTbdjAVlYPM7jeoIQj49Sf0reo3AB9 uRAEpicT8ysBFz65mALBDkSUYyrzVQcoQ8nX3QZiTP6AtI1JzZptIGbBYYzBheDmqIlIq/nI5H2m g1AhcBJmaYDDZPd7BWUGlzE6Ui8tgOotQ5hc3vmOMWV8lh/DagkppqtwxWJZjvpM5YwpcNXGVjSC fHsBp2hcZTrtBWRPBtNh9Rg+q1pwgy7/AM4MDJQsBIhVMjDg4D+qNKumVsA7aOopCCtZjMervVFu Rx1rZPA5E2JMDjnIW1Dp2QhwI3FSDsUSOMsKnJ7DtJACHTOqTOWdDEMlo4VJHK5LeqwmuBXCYK5t yHp4hgytGqYQDBo7QHYhXcTYOo4ocTKrSxZgZWZBOJQMLnFKJQnCWMSCKOUZjnGM4SxLGM9I6ikI K1kMx6y8TWwxx1bZTA5kwvJmGJZA2odOxDCJW8KjdikRxllY8/0WkdLsA1fqLanEHBnvaeSPIS5A GftRTiJ8XizknGpStTmVRivcbqD5waPufH1NcFYWhr3SxU6db90pkP8A6iDMWFq8WduZQDbKsOwc y3akV8AsvsYhH+YpP63rf7DqX2I3lE+etta42DpuL5x5jn2zGUZRliQjAMOUwsqngRZpchVmRFAU g5AqfdMXCpjAZYxqysXYkOcwLA28WtKqFkuDulG1Mr1TjC0WWFVx0qakTNiDY1Fgja17G5x365sD yZ9oswF2WlplAXbMMgSeE8+BRzHLtKMsY6O2vLy1Dc8iq04KBU90Ds1iZndEXbibfSpe4jGjhNoR XDV1ezgArDki6Hq9+PjQ6NdVaHiY3I+p3+IzYrgKshyAH8HNBa2sMZYLLHesUOiZS0IUPRWq04R6 muTYrNPxJBZjISdtx+1kmc45FBWqd/Auw6sK1aqBPKlVanHPSXNZ2NPaj26S83Tbaq28T+GW5d1x NIPpjso8l9ve4dM1cbAsmNj2P6dlMYLCE4WVE2Yh4AUulRmgtNjY88yVYCwyi15Aa2V2yMhXm2Bf MWE3FzqOKHKs0qyKYGVmQTkI67ACxiUJwljIZREjGY5xlCccSxnHQFXThDpnVJk6y+kaK0cKkjlg dRa5cYOrFIFc27P1EpDyWjVMPlmqw0BKQfYQF1a8u4h49tPU+Bv3P7XEn+8h3RLVndZ0TovVmkOY rEskOWSG1llHLeNPadNkkPQqacxcheWXIRHbWX6nbPJFGsLOr+StM3lcLHo4DR8vZ7n39b6U/vyH 8xSf1vW/2HUvsrdYmpW/exbSagnciwNlTyTdzXGi5leZZ1spO4kBbFlBTLsoEylvxHOWOp2Ol7Lj cnjxsUGBwarbQCx4ngB1Un/9gYuKzVslgMtjSdW5Jsyihq4iWjb+O3DE2mZRoLPxTkZlpeyYhAFP 2MA+MIWzP6sGRXUsrVoxYBcdCcktO1Uz1uml/M+xwRk8SWuAHCrILV3McHT4KsNoS/CrmJm9OFPq vqK0PIsbV1WuQX3BC33HTwWVDunmIAtwxIQ3DEGKHfyJOMMZliu0vWz5PF3Dv2MlgLHtbJmW408e Acf6FlImKydauWSSm2zxcFkdxw4VVFQlZaaZLAC6y4IZKY5zFzEYQhHGRClJKMBwjmUs4jjOerS3 AaU6RKXpOnIfrxH0lOc8QbxGaiTEZWzEj2shuBy2rhyFeQpBpB8fYPSL8vG/0aksrDJCpx9ToMTm CtYVWDEBv4QGC1TYZyA2Mfw1th4zVrMQeq/XtOmFZHUBpoX414QFDGouxmw2Mo5azKZrtSDPJ4qI gQZqiOuHK9b5lPrENf6mWQudLEHWmm8QzFncVhZwjUvLJqpcqwKCE81r0U42boo13rNwYeLDc6PW aCifTFGQMBysmBA99DWSrHE5GJRsOKU4fJiPGnXynaiKkJ4Nurk80gHccOZptoxWWmmSzOwyweeS mOcxcyIYxiSkQpSSlMk5ZlLOZZznpdJJc7bjZhLKqKiIwyyweeBhAuAUZFMYxJRGIQ4ymScsRjjO c4x05p7UKfp9vX8flqchVra5SoHQfDpHZWn5rMhJ8Gafj5+E/EkZRx7n39b6U/vyH8xSf1vW/wBh 1L7NKpuLhbUbDqZZpVkUDrsrH1PfCOuwAsZDMEw5SGURIygSEpQnHMc5x0az0FNbS9zMm4SrYmx7 2m8laIVmcIjE21TExA/wAkBFq4CUXSXq0sEI5D0vVNM3UOZhggsG2yrMjzAZMzTeVIdF2A92EDSU ZNgB/Jc22cZBx9jPul2wDYkqY9ZpPEpMAhKclzK3drtZXGNwO2z6SiYbZ14sRvBMK4bVUMHoWgas koWmqFOTbnhJsJEtO4ZyLAglFkIiSvGFWkWIZKxD0xexWbU8bFU0etS3upFjq1J6tqo0o2UbMYSv C5nGeoFor2KBHQaeICIMqngSss2WmFsnierZHG205bj2rCneMkx2geAjbUvgm1eSFc5EXgZG4geY BclI4GIxxAseq7VFcPk8bdA/XSZOsC0rWobbSR5gz/oaUkYbIFrJVJ0ijPGwGVfb1xuRX2qKligx tlFvpvAgyqbaPARxboCwntmGMsO/iSEZ4zHFtpy3Hu19wiZJjtAEyh3Y/BNq8kLABvInwNxA8wF4 zoAMRjmYo9W2nLce3YU7xkmO0DwEbal8E2ryQrmIk8DI3EDzCPkpnAxGOIEj7VLewmHSunHQwZWs Hx8qxfWLBrZPXUwyhLkMiBBnds2aqBkXQWFbmxD2jLAtM0wANyBgDVyz+93b2MwUifkWJcbowMlS A0WuSwpUwbxI6yAJSz1rL/p7/tWj69z7+t9Kf35D+YpP63rf7DqX2aN/6h/7qvPZdua7rkbPT1Yi 0+wu5BbJd3CxlhYqismW412zyZIVB1m03ea4MKrQTFjLpg4lQpCMcpRJLSZmuoMhJTgqCbh2m5BB HOBCk00yzmEcZOcxPIkqPSqEts9w7EE2Owp8NIUJs2L+0ZhSDHArwNOcXDAitbHHBnJyjjmp05UC 2q6nSCkv3gCBS7UfhW2eMFcJHXTZI4+eAR8lw52JR8yy6ttR25dqup0TOsdpggU21H4JRXkmXAR5 4+RpoAmcfJcOBeMsTLHq11RdyDKytjxKbCwcAXCMIRKqKrjx3zgKiYAKikWZmSQDgjR2GZFOSk0r XZxBm4cwDJ87ecKKChNmwezApl4mwigBlzK8TQMzscdfyOQcJVOnKgW1XU6QUl+8AQKbaj8K21xg rhI66fJHHzwCPkuHOxKPmWXQ/dMqx4g2jlKs1MEY1RQYRKTK1dclJ5hOZxZoqlQXHg6c6Z0O3EVq CZJ1Ze5xZs/+rd6Y3jf/AB61UL77n+i5TRQS/wDcdg0X/l9gPdJq1hjdryLV2p9qAR5cr2JQUrLQ 88nFkrCDeVqrOBrtNsKvK+ZApU+Mey1SvqxBvUXDVsNJtWEFzQXJWs8mxgiFo/j61HshYoHUSI8s nXWxYNqhiWJ/ZrL/AKe/7Vo+vc+/rfSn9+Q/mKT+t63+w6l9mjf+of8Auq89i/ufUVlgtbU5kxqj KZ/ILV3gvivUM9l4+XocRchiAXGFpWDuANrhsqPG11LXlmAw7zU4SgrYkmwPCul95cgcyUIBfG9b tqYsIs+boTVUKgyJV+Q7A/Snuf0dhA1dTTk1qWShsTEe9xOQgVR88aP7VGKEysRA6daT1hxnACsa XsPqWvLMBh3mpwlBWxJNgeFdL7y5A5koQC+N63bUxYRZ83QmqoVBkSr8h2B+mE3FwNptgKs0qyKB 1mVjwkI67ACxkIwDClIZREjKBISlCccxznHVtps25JMZOZSNFl5ydo2pkzXnmXjKQKyOEZJ2Egrj XxZquDX8hQhOVfb1puNY1TqtigxtiLsOJHgysbaPAgC7ZhwntmGQU+3iSEoZzHNdqithxuVuAfrp MgZPVWS0vBpE8w5/8v2GVJmEsdmuZSdmotyoiiwm4uBtNsBVmlWRQOsyseEhHXYAWMhGAYUpDKIk ZQJCUoTjmOc46udNFwaSYDcqlaN55k9SN5ySuYybKqQ2DjH3SsCqgirG1UfXBmUQ9+q+3rTcaxqn VbFBjbEXYcSPBlY20eBAl2zDhPbMMgp9vEkJQzmOazU1VMXZsUYPpDPyCVNrAcMvVTMsiXJuqEnj wIRdflqzWfCLjNglLrWX/T3/AGrR9e59/W+lP78h/is6oRUN73NXHk/lqMCTXT1EfdLbV5TkZZJv PFgW7X3YqBnBtpOuBINQfI/5OqpTj86dTvcah/a8f4MgQW8t+w4kzj1NkqtTupFk0nz+fAUxqF7L pprhUUUCJZVVYUALrLghgQF1wCjEYQhHGIxCHGMBwjiEI4jjGOkHNS2gahSztVaVRpmB8r5sXIHK AZzCEQaQcjWOQrrsl0V4DzJhkUe2c9esUtblvVum84YUioDJbC0qMyl6jTwxhgO9ke56qmPZebyd MtfWL4Pbm3P5PEY4zKUs4jGMcd8yzn9WMYxj9ec5z+rGMdUyGpNK6et9RmD6heNW1RXWbA7F3sWd fAzMrMWA1QtqsjwDwRbmqSygAZnj5lbaYbyMRmBxYqnZDFOVdbq53EWoSIE8hQlLyUeyviDJatp5 QRhZYzPFhUWIePYVTzda+vuCLsOonms0HdBMoC7RxThuBIQU+3kOcoZxLK4CsgSEY4hEcZwzJZSB JxhNliKa7bcgAjnJS4VVZZzCMsAXMXxHL470R9JX35a6+O9EfSV9+WuvjvRH0lfflrr470R9JX35 a6+O9EfSV9+WuvjvRH0lfflrr470R9JX35a6+O9EfSV9+WuvjvRH0lfflrr470R9JX35a6+O9EfS V9+WurejaKudmms36pgyc5kUKevaKoYixCjCQgJkFKQZzCKUh5jLMI5z29i5y2Oj0imAIpE2bS1k ypMkIzmsxJOibTkcEs5EWSrTK2ZxlkDBheJJfHeiPpK+/LXVhXctKw4DrSXPrT8qud4p5g5dez4D 5CTPhvKn24boJwJ4R8u3sErZACPU1ybNnqCQ5rMZCTttoVUXAAHIoK1Tt5iyd1YVq1blRaKqzCWe nOCzvad07uUtHtl81mNkn8StxbTjaZfU3Yy4zyuxzKZWn3wxMHPS6rhzG1NpYKlZfyNBiWWoS5A6 i15jB2pOmsU05ZsDENBiVsvYFkqBUyUj9GbRCIWmtVFcs6OAcrQioWMgEtqmKi4lsKL1zLg/TxwX 48atlEEGWGV3Nrq1Pp2304sSmOsJ5O3Pbrswg6Ms02YSUpXlCAYku2KOItciBFC764hzWIf470R9 JX35a6ryX8EW6+y8oAtqYrLVdByPnKVcwRpNE67uzDkigVeImgbmVDHmo9BXp+y09c6WW9Newk2h a2D4bIXmAZwNyWSqn/BJryMJU5Jw3zpOjhH92nnr470R9JX35a6+O9EfSV9+WuvjvRH0lfflrr47 0R9JX35a6+O9EfSV9+WuvjvRH0lfflrr470R9JX35a6+O9EfSV9+WuvjvRH0lfflrr470R9JX35a 6qj6it9OMkuTsiRTqD27DM4JDFNxmcm6VFQYF5MKCliTXImRsWwuUcGSA6nrqyXGSk0sWYq6Jdkm GtTSEKYc8cqx8SHTqMeo4NgibC1oSlYUIbaaiP2Le6ZUgNnLZl6zVmIyZPCJIrhVpbXbwAgkwZEt ipeKRoC8mc0g11ZNttmL0XSNscObrR4FF0MYgsvNzS8RDVQlgUD7rRqgguA8zBMAoLnpMsFZfbYM T/BZAkwQOpdTjZqqHId6JFo9hQtbWLAGVCqkrU2f3FgJCGFbsVs+MZaLMh9H1nZLedPpLtwN4PkB vUjEM8bw30zLH9FVzOxJssrPV9kXT7Y/KE5ewmkUJeV/rJJlWeRlTl6ZQZnBeyYaWNE5v4uGbNTX 5wAOM/xJtd4LVVARuh6vfj40OjXVWh4mNyPqd/iM2K4CrIcgD/BzQWtrDGWCyx3rFTomUtCED0XS aBY51BrFQ6ksQItKddQTlgFm0wuUbE/G0DlinSztr5lmdg4o5Bmq259I6i2yHriDJWXqgIAkdqnb mKZ4r5PjtFlZhdWwXxAyu+ZOChWhKsMd13E2ANptgEyq0sWB1mVjwiUDC5xSkIwDClEgijlKBISj OEsxzjPVhp5j9h6HlY0DOWCrCUv1lmRV5mZDCz5pT5BVHx5VZlwmTzWhB2CrAWE3FzqOKHKs0qyK YGVmQTkI67AC4iQJwljIZREjGY5xlCeMSxnHSGoYwIeuJCdZeqBGCZ2qVogSMxX3/HEWVzLrPreJ 1d46g1TMwUOxiS7ibAG1GwCZVaWLA6zKx4RKBhc4pSEYBhSiQRRylAkJRnCWY5xnq50yXAYtnDya Zs2B4wjdqdy1zG9JVwiwSE7pWBVQZbnVNvrAlGR+/VhUWIePYVTzda+vuCLsOonms0HdBMoC7RxT huBIQU+3kOcoZxLIW3izxpu5hGr1DDHKJAAMkxNW3gqvPsZmqP3l5ZWcPitZtVkw8hyMsf4LDjjA FE1AFZaaZLACyywISKdhg5ZREEARRkQpSSjAcIynOWI4znp7UW2VetGIVZRKMRXwwrUKSLMOGMrx 7ZYaZO3YHjMzeViuSTE2dZYEuqnTlQPdsLh4KS/eB5iDuy+Fba4wWDjRRBgjj54ALxkgHYlHMBS6 o9KoS3AU6UQTY7FhzHCzmzYv7RmGpA59gdp3jYYIJXf44M4AMccex6jvEQ2VVZAyu4mfGfAo85xK OcShmJQmCSMDLMgmNlVgYmViiOIZI3mlX5bhqd2QRseIocxIsYs1z+0FhuAOfXmWc42WClV3uMfO +IkcVGp6yRMkrmYZaVgWAo2VbOWI2FYWZANDgN5XcDg+VjTULkbgI4ZXDOKN5RvBsaqyBFhNwGc+ BR5zmOcZjPEShMIkZhZWPAbKrAyrMiEcRBx6vNKv+53uGp3ZAGx77RQ5iRYQZrn9oNA3AHPrzLOc XLBSq7/GPnBxEjj5uPtf/tfr5uPtf/tfr5uPtf8A7X6+bj7X/wC1+syqtI0CSnjHsCwbsLNnE/8A 9cstLSqR5jLP/LDhxzD/AIZnP/j18nNJ/wD4rj8W698OoOENiCS9cqrXLyXTTSXkUsQiwUrDJPNl lpohGmWC7rE4QmNWC64eqvS9JQ6PjW1IJiBllS/YZLMxytNMsFzqOMcnbcOdosQjCsOZZDVXXWiI A/iTRH0dffmTpnU19kEWzgVWGqnlvFeisoCIoL14HG3SrAIXedMLB8wm822ziMZHljqvqK0PJsbV 1WuQX3BC33HTwWWFunmMItwxIR3DEGKHfyJOEMZlis01UiD4qBHKwcEDICW9rIQ4v2zMZGZJvOEh 3iObJ8KLRXQBPiKLwhYW9ibj19Ui3YvsbZS7CaIJstG2gQIcm0AU57YRkLPt4jhKWcRzY6osYcbk 7YEK6LB2QVdarDbVSBM8v9bTkgjWAzZNOujUW5OQx9j2grdorL+nV4PURTzKYk9O+YlCoefH8Bip GyKwV5DsyzUswJJrjTqf2ege6FQ1nhWWfcOq+Ev2Anc5NjjXLfZiW365v4VOQSa6sbFOBm2DWd7H d6U04tCjuUq/uNAt+tYtOpp9o4DXCYTtUPNJTtnCcDwMVYUsKCNFICiy/wASaI+jr78ydM6otK+q r7J0ConcVEbAazU0wxVCzMVhY2Uhn4gllZRWIBbI1hk4/Jmwc/VVp6Nbpy0WpkgVyTTqrw3OEpHa UCfKVgssTirRCqMkVhFmIEJtTYakZgnyc0n/APiuPxboUbHQKrTuMS3zpajKgsTPnLMdpQ9LZFDj A/GMsSdP5TxKeMwxLA4fNx9r/wDa/Xzcfa//AGv183H2v/2v183H2v8A9r9C1U1p73ugcecBWr+r Ct+aklOK0390aiM1+9gN9LinXiX9y5GMyAyGXsR0FUNFWf1EvN69KCZQkhp3zKoJDz4/gQV22NqD XHdgWClYdJxcidt+10T3TbSPm07z6vTQJiTKMCQyxWsLoZfIzIXTtBcpgx8USgTDY+fMVtw5D+gH WFYvCVxpGBpv+ERxK5pkncjmJSirM7E6c8Y2CwytrqKImvjYiVk44S6Z9zS2ObMmjHs9J5zBg8Iz iuZq7qslycg0w7a3qyIRqAXkxK7Iw1ltpMBug60rVszuNJ4zh/ZHmRW9NHn3Z8ohUMc2aZqUbGGS MLJI1pb9ovnPI+3+HT2N0spNF+BaOVg1hbHoJLSYQjuRMNECFOAM441k3ksMhpW7TtgvfYL0t7md ScOcNhBZ6sziCx5wHFkLVJVYJvkKkfJVsWzwpqrsyWlSEXako44A3VlqrUieTMa6qm6cCJ+aDw0e 3LwYicMord86gmGDYjw5Ec1Q61lFsfObHm500XBpJgNyqVo3nnL1I3nJa5jfkokNk4x90rEqoMKR tVH1wZlEHfqp1JUE27CndC6v3keIjbefhVGuMZcxEngZIm8CBhchM5wZniJM9VOo6gm7X3CIXV+8 wTKHdj8Ko1xjMAG8ifBE3wQOXjOgOvKWZil1bV9ooC0b1WBmiqa0s1e8WSAkT1zImMEJkOnyYXeg ddcsxWuakO4lJoboP8Om00LB4pnPybpoHnjKNIp2LYsb8VHRLHILslXFaBlSVs2gueUYn79V9RXB 49fVpK1yC/mUuwmkCCyod08yGJtAHCHmYhCz7eRJylnOc22o7cm1X06JnWO0wQKbaj8EoryTLgI8 8fI00ATOLkunAvGWJlj1baktybljcOmdY7SPIQdzPwSivJMwYaSIMDTRBM5eOmAAMTzEeOqbTQsG imc3Kumg+eMo0imcFsWN+Kjo1jkH2SritAypK1bQXPmMT9+kaqvDhZCsTVr0V4ynPAE0wwXWDiZZ TJLAgjhDEiTnPPbvKUpd8/pHUXj5aeuuRa6dLAbm0unNkkZ0pGG8m33ab4IJpRcaKVI1a+zkBrDj Cr7etNx7CqeUsUGNsRdhxE8GVTbR4FAXaOKE9swyCn28SQlDOY5q9ToxiCbMZr2SG8ExKy1VztuJ l2iTzCOc+LaW/gLB6xpFwi4OTgeMxljEoyxnEo5x3xnGf1ZxnGf1ZxnH/HHVggJQwtOWRi2GmGsx nxyVxcwJOvEYjThSmoym9NPymOcYYlrI4RCsVvPqv1Cv7nuh4Ow8a6+WxoymXEnfLLLEsArRIsz5 pT5Am0J4aYlwmV4Mzg7BkAfm+0R9VKH7h1832iPqpQ/cOvm+0R9VKH7h1832iPqpQ/cOvm+0R9VK H7h1832iPqpQ/cOvm+0R9VKH7h0hrPTqgEaO8NCrfq01a9CvqLZZKHD4CyuxnZt01G2DDgnKK7yT bB3M5s1lw9XFxqx/LmoNDxxXzw6ybl6kI6Jkulh8qNeT99sZLsVJy4xZtijVM6guJ4EcpMPXl26a xtbI8mXHD5x5lJnGI4xGMMRGEIRxgFZYEBrqrjEssIQBDHGqpTj86dTvcah/a8e9MgQW8t+w4kzj 1NkqlTupFk0nz+fAUxqF7LpprhUUUCJZVVYUALrLghgQF1wCxEYQhHGIxCHGMBwjiMcYjjGOoP06 ZndSaVMR+uWWgQzL9cztDua1cOGQjmaQwrWQey7rpiVeK2vDu2UvLpzQNueAUNSMwdozGIAIgagw KCxkpSyHBCTvFhKCV3XPCDteumoqRm2nLo7a8u2naXfqtOigRzaYTgySU7oi7eA7Dtz8EUsYpqlE kCtQawcyHJLX1FcHkWFq8pWoL7ghb7rx4LKh3TzEAW6csIbhiDFDv5EnGGMyxTUtnpfTOobJJTtY XFpp+nebdeOQjTcuSxX78lRnMQFfA3kUFeJVchCTFkkvm+0R9VKH7h1832iPqpQ/cOvm+0R9VKH7 h1832iPqpQ/cOvm+0R9VKH7h1832iPqpQ/cOvm+0R9VKH7h1DTOj6DTlQppYJFrNqiqqxDL925sl cXMernttAqBCWSiJgC7aFt64sWMo7ecdLaneUD749XBi/wAqUISZT06faLU1wjQaZFsuCGO7Y2oJ nmR1ZOyBM1QvkfSmgak0S1+mmpOXhxEXMFjUGQyXEpCURSIOVGsZsDXg34zefZUbUGxUjnnqb1wo ZLUeqjCfsVWYECyhXq4KKmrmAZZMOJ4DM1ZG7rpvBJayrbAO7XR8f0jprx7ahpuRa6cLAae6d2Cx MTpZsNyBsJXXYQTSw4qITga6wZ3xV/GL0vpZ5ovvd1exBHC8plmBLUR9sNU+EA12Zbr5YipWdvii nFpRywYyCoDiPRl65cRNS0hfVKCUsgDM88Y8LCq5RFykgKzT77YImTAa2VqCOsjWWnLHWU7OXjp7 VnCq7EuSJrirnYM9qq6ZO1GPikjynAPR5iohpvGsCcktestP2fODoj610P3/AK+cHRH1rofv/Xzg 6I+tdD9/6+cHRH1rofv/AF84OiPrXQ/f+rXTNzr3Rc623VysfZ1dp+BwyxKJl2lpzbKOLSbIwtrS IIoosBHkgiw8hysK3lo2Hp7rSXPrGOXWu8U8wcuva8YclJnw3lT+EN0E4E8Y+Xb2pc3XGhw6h1Ft 3d5ualoRtL7w8em1Bd2SjovS0sx5CDe/w7lq545chPjr5wdEfWuh+/8AXzg6I+tdD9/6s56RuKK3 05c59Yr8UNlWvr1eXJzy5UkhVwGqjFNzB/TkxxlEVOSvjkxTxP4ex/XWrdU6cqbKsNOs03X2eo0q pkc2EZwtrU6DU1pMBIo8OvrTb5V/OVxvK8hdFgXzg6I+tdD9/wCvnB0R9a6H7/184OiPrXQ/f+vn B0R9a6H7/wBfODoj610P3/pn3vago73h7PL9GtkLPi8jd2OTwjn2N/YNs7njubJfDvty7dWL4mwi 1FYhLX6YVlKHILYl8BzsBBIq6IgaQRvUz8oGETTEtWmOI1itifSXNW39Pac27u83Q7irOyT+G1Bd 1NxI3qbsY8lBvZ5tMrcbBcGDj2PaiiILNkQwKyjTZwxx2rZvBJjwxJaGZYAooByxNCRVMNDSkkNx ZlkE+mHHGDtuNnKy00yWZ2WWTzkU7DByykUxzFlIhSklKZJylOcsyznPQGnQBNpnSxk7O+iaS0sN EllglRVZTYA1hwFi2nP1ARAYWlVLvhm0Bo6UTf4AtX1S5I02rysFsO28Uaep8Tkd3GZ8aIVhXAZ4 sFAkcYYYcDezHACa4RQ6S5rO9qHTvhSXm4bcaY2R49Nty7rjbpfU0sR5D7exzLlW544sBBj2E1ch DyodZOstTxAbkvTL+UYMWQGmTSOH+MGmzbIY3xSl/E1F0Qq1cCF6ypZy8tRaU4VVZlyRxgtinNbx q7plhrE/J2w4rgn8ctkpHUmH54VC+stDqLtUGINO6rizZVwBDXACvfCWOLapWAEuZRVWkwo4pniq LCXsR1y0S+nGLn+UCo2OPvjuZCtNREzFSRANSDGIKeDKvnvqVEPMcO7TYZPns3FCQA9gUOis1pzE 0zShxWafiSLC8TQ/USwtcqGOWIzWTnfAzYCmwapUqBvKiaWnHC6aa523GziWVVWFM7LLJ5xEBdcA oyKY5iyiMQhxlMk5RhCOZZxjqqpDw8bdryudQfteX8ZsBh3l/wBlt1b+GrBUqN1IsVXPT+fEUCNF 79HVSOE2mdLGcrKGQYLSw0SWVx29rhxc7UXQWLaUPTijPFaVUugWCq7R3ZGXTTXO242cSyqqwpnZ ZZPOIgLrgFGRTHMWURiEOMpknKMIRzLOMdIadhKBrCcpWV82IpiBbu2hAG2RbewPMVQCXXRU8V1d xZQTBwRbMxKf+Bd6WsM4gG2TmITOYkJwXh5weusMCEwrM2UHhLt8bkCG1gWVT5yuYscvUd4iauta 0+V3Ez4x5jn2xKMoyjmQzAMKUDqsgmRdpYgmVilAUZJVl6bMvSWYzqNQDhiOZSp3pi3TR/dmjeVc 0FS1iJWImHMo8DfEJouel3E2AtqNhEyq0sWB1mVjwiUDC5xSkMwTDlEgijlKBISjOEsxzjPVjpey nxuVtnQsYrAZPVWS0txV4ED4/wBazcQlWOzXMupQbW5WTRsKiyDx7Gqebrn19wRdhxE81mg7oJlA XbOKcNwJCCn28hzlDOJZptSiyaSYTcW6VD5yy9SN5iOxXwHDSQ2DjH2drxMnirG1UQYPiUQ9ul3E 2ANptgEyq0sWB1mVjwiUDC5xSkIwDClEgijlKBISjOEsxzjPVzpouAxcOHlUrRvCOEbtTGSVzGTZ VdIuAhO6ViVUEmpVTb64Mxkfv0wk4uZRxQ5VW1WRTAwsyuSQjrnCTESBMEsZDKIkYzHOOYyxjOM4 6qq9+whUovWKSblqUW8KsVZZGE9gQO6DdGmKcmJj3hecR5juQ7+WPnH+yH+6OvnH+yH+6OvnH+yH +6OrBatf9Vrl3WgIWfFKj6imI8xqv8I+ZHT5YYwY4ppZKDc2iZzOOeq+orQ8ixtXlK5BfcELfceP BZUO6eYgC3DlhDcMQYod/Ik4wxmWASb90EIG5BFloK2mJtLhYzDGTCA0W/TIyEZPKIjkUVmaGMEk sCUsij84/wBkP90dfOP9kP8AdHXzj/ZD/dHXzj/ZD/dHVPbjvffFXWLp65pj0wVT6e5sYZQDtZt7 EzXPCGxnuDHASvB8TT82gRz1bEjraFFbVDcIHp/QJ2RJV7AYZVsotStq0UoGZi4rMAoGmtlYZGJQ i6tiXzj/AGQ/3R184/2Q/wB0dLWrOuvV7CxeilWU0NPgQKz4x3nWyFJqRg40UQYjEx10XPF1quVL EMHeSLourrYBs02jzKHr84mwvBzVESjaQxgsAbTQagQue8tBwBhsnpOQJlBtgBOh6RqThxdawA2u /jMFmJp6YkIir8simfcWNbkLwEWZpmFNcN3lcqz6a5h9S17ZgCSj0wcq9bEk1i5a1RsLkFKSZAMS 2adRyNhBnMkiitZ1JkSnyq7AHXpNO/JTVOp5cRMipcidrakee9pajlhY0RzlHwqlZbyTkDPzsK0+ 9VF8OrDXtwmFlHT5oIUA2IQLDOouwWzWMY4axKBqRSa3G5SJQTZtRupnE9UYlD/CX90ypAHGFAr1 mrMYksCcxyZCrSWuB7AyunwVnFS8WbTDMVsUg11YqJuGF0f3Pr+z3LOq8TaV5rHkdyliHPIp1e68 fP0LY5C4yunazWuSCmsKsopbXWnNUJxMOz1UCyDcYybM1zT0+GlVRaEKWM5AfKjcVWMQJheY1FZw XGxls7PTPuc2rYRv1pjP6XgWcBzermsmbtK5aMVRxKasb37LO84w6wtZH2AQRpiyH0v7o9WoYqNi Fev1RMUCFgjYK4CnVWLM5MkyIFipx6vGyosiszXLbxpvXI4k6HpF+fjf6NSWVhkhU4+p0GJzBWsK rBiA38IDBapfzkBsY/hrbDxmrWYg9B0dWs4hcauwTD+0SO8ppoGfFvzwJwTK+bljxrg5Kqwk9Xiv 1s5gYUc+xn3S7YBsSVMes0njM2AQlOS5lbu1yLIBjcDts+komG2deLEbsbCuG1Uzh/RttOW492vu ETJMdoAmUO7H4JtXkhYAN5E+BuIHmAvGdABiMczFHq203bj27CndMkx2ieIjbefgW1eSFcxEngZE 4ieYRchM4D4hiJMdU2pRZNJMBuNdKh885epG+wrFfYi2kNk4x9na4TR8KRtVEGD4lEHbpC2rjcmv tElbFFjwILfTdBBlU22aAzD3QkhPwKOBI9/GcIyxnGDuOHCqoqErLTTJYAXWXBDJTHOYuYjCEI4y IUpJRgOEcylnEcZz1aW4DSnSJS9J05D9eIekpzniDeIzUSYjK2Yke1kNwOW1cOQryFINIPjX09WD LVjaOLV6K+JjHvNtliAA9w0xhFiRJxxIpiDCOPeZZwhGUsVmmqkQcRTAPL7ggZBO3tZCHF+3ZjMz JMGdLDywKbJ8Jr4AgvPCii44WFvYm49fVIt2T7G2UuwkiCbLRtoECnLtAFOe2EZCz7eI4SnnEc2e pbYps5bMSNemU+DwqKmJSSQqVpRCsPZTGTtIg1gZbZkw+eGW22CT603Q0jQX61GrBkFktPJF7Wbn d5q2BnLTscBtXGT2IxiaMsGDOBKz48BYxYW9ibj19Ui3YvsbZS7CaIJstG2gQKcu0AU57YRkLPt4 jhKecRzZamtJEjlomR16Mz5YHU1Q5z4VWvLwDDbWhPOSkGBfDbhGniCiw0bOanTdQPcsLh0KS/lE 8hB3M/DNtcYLBhpIgwVx48Al46YDnzDMR56qdOVA9qvp0QpL94AgU21H4VtrjBXAR54+SOPngAXJ dOdiUcTLL/C2r6yme1lDBBUFSOL1wQeSLxzMgslCqhDbY5IpWjiOHAhY4GWjBkHo9a0UNNpkhoEj p+sx+wbC7BzJytbAmOZZGFEgcFhjKlSVhJR4VQs0KJMdVOo6gm3YU7oXV+8zwEbbl8Ko1xjLmIk8 DJE3wQOLkpnOvKWIkz0nrVFvj0DSLFhNmyxFHgCSkcdjiwyWeyD04yrQmzRMRP8AdyGAydXIzzud SlyaKZzcWlVN54yjSKZyOuXyDLbo1jkH3dsRKnkpK1bfYBiMT9vZU6jqCbVhTvBdX7zPARtuXwqj XGMuciTwMkTfBA4uSmc68pYiTPVXqikmaVbbAkYGGQ5AyKYjFVaWYF3lHB1GwHVNkRDLzIGU1mGF 5DNO205bi3a64SMkx2gCZQ7kfgm1eSFgI3UT4G4geYCcZwAGIxzMUerjS1t4c2oa2ZEFKExMAKIb SLg/Cc/GDqJ124CJnBwRNgLIxMQIOFdqiuhyeNugfrpMHWBaVrUNtpI8wS/0NKSMNkC1kqk6RRnj YDLGs2rQK2mZVS11G0YgcMJVzoRHTJFcgouZM3E4ILJYX5x2DCUEtJokA5vNVPx2zXDsjjX8hT4a Q4wWrkN0K6kD8CvCsnycriK1sck+MnKSWazTVSI2ZNmHKwcEDBx1FTEo4v27MZmWHspDJ5RHNkGX GZLoLzy22uOaNJSpir6utXgqkoHy8BCh/wDec5TKYpJZkU7B5kYZPMjDBSmJMkv0k9fVACHsNNqz SvAigcxT6e3ZsicjGJpDHCjZM2ZraT8ppWDLjjQ1qmEfYT3MbSXg0lz7TTR5lTEM6RCxZsKUYvEL JnQMmcuQy8ninTNY+fDVqA4NjQdYcw7zU4RMWUhwYFhXS+8wM2IuCOvjet21M181vB0JqqFuF4S/ JSmfpr3S7VcWcMiPV6UxLIDSjCJyr3drtyXmRU24D0hE4WwnkDN4FhbKzKpS9VvucVjP/pXep9g3 /wA+i1DGw5/ruXEH0f8A25YKl/5vbLQdmcxLzTASnrZEgwXDWl95cYcScKdjG9UNt4r4LeCQQ1U6 gKImOM7MFb7nFYz/AOld6n2Tf/PotQxsOf67lxF9L/25YKl/XL2I3lG8etta0+GE3F848xT7ZhKM ozxIRgGFKYGVjwIs2sQqzIigKQcgVPumLhUxgMsY1ZWLsSHOYFgbeLWlVCyXB3SjamV2pxhaLLCq 8KVNSJmxBsaiwStK9jz479c0B1M+0WYC7LS0yALtmGQM/CefAo5jl2lHOMfpTu9UWgKmtiYK2Dmi YsysnznaXWVVEdts+YxIXIVQGJBcLDM4xXXMSEqrQAHdL1892DNy1JXN+8A6cRSAAQsMgodkxWs4 bSeaspyEg0o7VTgwuVhxxg7bjZystNMlmdllk85FOwwcspFMcxZSIUpJSmScpTnLMs5z0umkudtx swllVFREOyyweeBhXXAKMimMYkojEIcZTJOWIxxnOcY6ttXWnparNSCVgfTkXRMWEapTmytGyuBl KqiZRcC766azjmXESs43V7JYNY71caAWZDHTl7aJ27wMqhkzlhTZ7wE1mO6MDRUqszEf1zxOrWis RcLFmJ/pn3TZ4ODADxaFQlQNlpzS+YgxnUixQkMWIYlNNnIW0lA+hqMXkXpqTVix0fQFrLwr9UOx apmZkTABK/wrkRVzyLERjeugWSTUxhouYWKiSiqM52rBxdY15WAMS80wES9lEc2C4a0vvMENmKYg MY3qhtvNhNnzSCGqnbmeKxxkoA6X9zSTAsacWts2g8jwcLsoSmZj0o5BMQWaqfUjzt8AaUMeNlgJ os4GsuIXRNXWwA4utYAUYQziSzE09MSFBpCOCwBurGtyF57y0HDimuGkwwFZ9RgI/wBNhNxcDabY CrNKsigdZlY8JCOuwAsZCMAwpSGURIygSEpQnHMc5x09p2JTM1hAgtKNxnj8hqpb3Iw5EViSxgyj YHK0pJiUk3NLLw0llmgDxVaipzZBY1DgnFpeRowJt5+FWY2ChIRNwOSKPL4LDDKZzrzz4Fl1a6ou 5BlZWx4lNhYOALhGEIlVFVx475wFRMAFRSLMzJIBwRo7DMinJXaXrp8bk7p37GS52QVdarDcadPA Ef8AQqpExFgM2TSSRG1uTg0a+org8evqkVK5BfcKXYTRBBZUO6eZTl2gChDcMQhZ9vIk5TzmWbPU tsUOIpgJhBMp8gnb2shEkhULSgFkmDOlh45LBY+E18HfYhhRRgkLC3sjcmxtXWrF9jbELfcdPNlk u0CAwi3DEnLbCMYod/EcIwxiOK7S9cTjcndO/YyXOyCrrVYbjTp4Aj/oVUiYiwGbJpJIja3JwaNj pexJyeNtHQsYrnWBaVrUNxV0EDx/1qtxCRkC1kq6kNtnjZNKq1RSSDGyqTyKHDIcHWMMwSqtLMCz mMshbTOdUshTCyOBckVYXZiI47C3sjcmxtXWrF9jbELfcdPNlku0CAwi3DEnPbCMYod/EcIwxiOK /S9aTi8ndYfsZrnZBV1q0fNp04wY/wD21VIFKsBmxZSTI2tycGhgl9XQPVEJgQL6pJJ2oKTbBPIy EyMLSBPM+wOFoojJsoGcocoIZG9mC6auTgTkffapWf3ukezmakj8iuLnaGdkSQFS2KWVLaKmJAXf BGWeqylus+9zVzfHU4poS9GtbEnIx4Uz/mba3tkWRpW2VD8p5erQPcHxvk9rDjjAFE1AFZaaZLAC yywISKdhg5ZREEARRkQpSSjAcIynOWI4znpun0FXg1C+qaa5L5+cve7ggSLeea8KZoN3YZx5q3Ji 1VLQMMDqRrdEsczJb6jtnbixL545DppE2RTOZniqC/UBFIZmDzAimMCa27OK4Bxz29kbRzPvT07L ayKytEmZu2QmE5NLtUtXni89KXkn5PmcRTIJrJK89gVVlaGxpyrhh2cCDavHsCavXYFyvkgj2GyO Q1ZSUWn6enBWuwYWGIqYYmUs+jqLx76dut+106WA3NpdObJIkpSMN5Nvu03cQi5i40UqR619nIDP 5WF0hp4HwaI+1lfsxYEuVShWZWE+VXJRMebpOSFRGEVWccxkBGRwSG0cPo/p6XpHC9M9K4oPTfTd ji+n8Hw43C437vxdrY2PgvDb/Z6tqQA/Cnb7XOnv2vLtTPkLsrftuOs59MZE3UbrpYtOcDnzFAbY u67ibB1HFDiZVaWLMDKzIJxKBhc4pRKE4SxiQRRyjMc4xnCWJYxnr5Y/Z7Sv4H0dNzVIGlGglWaV Z0zpI67K54ZEYBwlopDMEw5SGURIygSEsxljMc5x7QKMR7adpdi11EWY3NphODI4jpRsKZFsO3Pw ohZk4qUaQLJ9XJzIccv+Cw0mAxtTaWC3Z0EQzYlJqEuOS2quIADUnTWKaccV4RhgxK2XrxxaAqV2 JvY45pOwBVtvggsy1Kpp7BnKw57vHEe0QdKsAhPAjAlpBg1MK02IlkqtkXyx+z2lfwTpNPVmoTWi aB5srKxUrq9bDM4bXIKCrTSGycYvMa5WYmmrAzMF8ii0zgvQ9XPx8r/WSSzUMTGnL0yglObFauqy GRzZ9YBNa2sMZOHGf4aowiFqqmUxNXIR8b/RqTLU8DEnH1OgjODFku0yaQDfwcMGbavxg5sY/iSi 6JmrWBQ+yb1uqVTUeqihsLFZiBQsIILRLCnrWASYIOLAhnasD9103AltJ1zwszrodmE3FwtqNhKs 0qyKB1mVjwkI67ACxkMwTDlIZREjKBISlCccxznHUrXQB0tL2M9yTNM1hrNA8c7mDSOAgssnotkJ WY4URSarZxCiqojVxiwyWdNqaqaqLGA4m2GcQzEwJynCLKrAZEVcWkQZRxZUMYGSiKLBNwRIx6Ak 0c2qdMhDIMaGzczEiuIrAXTxVW5F3G64CeFQDFX+DFVFbLUAoAaYi6HkaesPB6HIyzQWMllr9QS5 QjkyavEyx5pT5KuRvqFZS8mYLTPB2DCoepUOpVjHTwblqkWaMoyjYYVaUA+vMUtuZ1huHyITgmkZ zzjkqHjjx6k/pAbusqGW5PI1VY5v6zycwFZU9cvOZrj4A6+c2FStjvITx26yrUCIhuq+3rjcewqn lLJBjbEXYdRPBlU20eBQF2jihPbMMgp9vEkJQzmORVXumBgnOI/EeqatQ81ybKsP129SrFg8Gmji LKTVQHKuTthDGor1AkZ6DY1FglaV7Hnx365oDqZ9oswF2WlpkAXbMMgp+E8+BRzHLtKOcY6V09Wf to6I9TrmWZrlCUt+yyIVyEciGzvJJempKBnlVaUnR2U4TbSmkxnqSdpLx09qzhVdkXJE1xVzsGe1 VdNMNRj4pIcp0L0eYqIabx7AnKLXrLT6xWVbI2aDSIzVqRw5jMLlmxkU7x4RMqgNtbwFqscd9xIs anFigbasZeXQWldIaoZWZEM67AKC1MA4DQwQRglGpIZRFHKMxkhLMJwziUc5xnrOc6L1ZjGP15zn TlxjGMY/45znh+1rT1n+wjrf0yuWZguU5RX6zJRUwSSGbGyk76k6oaeFWZRdJWznNRKDrGP8G51K XIZOADxaVU3hLD123jI65fIctJEYAMnd2xEqeLUapR9gGJSB29pR0tRaW5ARxMw6uvbfmGEs+MZl iqIuRxln9WJSxjGc/qx18itW/Vy4+59QVuauxqWSCweC9mkygeYJTmOJoCaGIkhSIMkMExHwzMc4 4z3jLt1XvlbCXUdaENfqdXEx8gdgLExwsSAGsmMQLwYc2QOKvwgkIzWgMUtaz4WD4mwi1HZBNX6Y VlKHILYl8BTsBBIq6IoaMRvU2OUDgmmJatOcRrJbE/YjqKQgq2QzHrLxNbkcdW2UwOZMLyZhiWQN qHTsQwiVvCo3YpEcZZWOT2bV9ZTPayhggqCpHF64IPJF45mQWShVQhtscgUrRxHDYQscDLRg5D1F KxglWaeWdw8hRpBgTbYDzxLNN2Z4ZdadglYEUPkMkq03hA46pc3fPskhpWjeuDi7ciYIwEkn5iYM Ln2LMwV6HIgoxhXmtA5RRZAvunzEea+/1e165qhB2LyQK5poFDWMJuLNVrQc4CjYWLoJq5JOTmRV 0otzUnUnysN43tZfmrLT+ozRnL12njAWWD+DeRztq7PZKzjJpmLDh/FW4agsBXFwuCPj1gl/XQPV EJgQL6pJJ2oKTaBPI5kyMLSBPM+wOFoojJsoGcocoAZG9mC6auTATkbeapWf3ukezmakj8iuLnbG dkaQFS2KWVLWKmMgXfBGWen5K1rtZ7oUlRpLBgELFMN1rlDJdpMnkfyVrhhG5mvsVMly82nXRxZJ QftAdFdiuaSYDrqnaiKeVwstjaKquU2MbYzMiScIuKUsTNBRmQ8SwAmY9M1RmjD90iAY6XTOLNqY 56/igDLWDNpMwJK2mE8tCxMVm69LUYV7TKca9qYVesN2I4z05pSSVpbDnFQw32pmnKqpzrNbu6pY TUZI/wDupgzQTZTIRY7qpfY0JJiYdSamgxU0WRbkSrRzEcbW2iYLSh1p1qZ/3JoEyEDbs1cpLlX5 GYdes+nu+j870z1Xin9N9S2OV6fzvDjc3i/vHF3N/Y+F8Nv9r2BbbJH3x00hVeoh5kpEh2ohjIFx BZXw2FLeHmSHdVQMXwWaag5gRwWf+BFKqNE+ndKRZra44iLnBYPmLHNtbLHCLEpKsyXUTUxym1ir 1w7FaQvUTCwummudtxs4llVVhTOyyyecRAXXAKMimOYsojEIcZTJOUYQjmWcY6YSdXMo4mcqrarI phYWZXJIR1zhJiJBGCWMhlFOOJwnHMZYxnGehNPmJHTVyPFXqGEeUWAA5n5p28VFyYwVmrY/X55X cPGsZtV0l8stxz7Dprx7ahpuRaacLAae6d2CxMTpZsNSBsJXXYQDSw4qITgq6wZ3xV/GL0JqwMWG mrkXpmoIQwyaIBZl5pW0VAGjErFYz/xJldxiFW1bASWmy1DorSBiS01TDzWaehLlCicOJ+blvJRg mcBZtGP1+eF0zyrFqpd1fDKks9LpJrmbcbOJVVVYUzsMsnJEQF1wjxIhjGLKIxCHGUyTliMcZlnG PZ/Ei+GlNQbKmo/FPlnX40GvS7MG3mLWPT2WicsYeRu1zDu3XuPjr9qVVoADul6+e7Bm5akrm/dA dOIpAXELDIKHZMVrOG0nm7GeRItKO1U4HXKw44wdtxs5WWmmSzOyyyecinYYOWUimOYspEKUkpTJ OUpzlmWc56XTSXO242YSyqioiHZZYPPAwrrgFGRTGMSURiEOMpknLEY4zLOMdKWnujsBrkRGgWel 69jDVg9AZGYzWsbVM3ErgFyNQverYsWWUmTB5NM9CJICqNOVKVPXC8M8dIMR7pYACtyWy/rO66QK 4YHfcIdxnbjJg5Z/tfpMJuLgbUbAVZpVkUDrMrHhIR12AFjIRgGHKQyiJGUCQlKE45jnOOpWugDp aXsZbkmaZqLWaB453MGkcBBZZPQ7ISsxwoki1WziFFVRGrjFhkpKbUtS3UWMIYLsNRx2MDMyDiyq wORFnVZEEUcGlDGXmQRYRLmQ54x0ummudtxs4llVVhTOyyyecRAXXAKMimOYsojEIcZTJOUYQjmW cY6N7mt1nLeLqMndSOV7LAslvCzVNFyuIfv4Yq5oVwkfNQa7Ua0J362UmnQFttOW49qwp3TJMdoH gI23L4JtXkhXORJ4GRuIHmAXJTOBiMcRJj2LpprnbcbOJZVVYUzsssnnEQF1wCjIpjmLKIxCHGUy TlGEI5lnGOkNOjlEr85epXzQzGMFu8aCAbhFt6AvFQMFwJJ4wutmaqoTMB5hWSEYccYAoooArLTT JYAWWWBCRTsMHLKIggCKMiFKSUYDhGU5yxHGc9PahiIy1YMIKuiTZ4/IWqVNyUN+S44YyZxs7lkU cyNyUm7lEbjK6oCZQoqNI1ja2R8LpqAxjzJPOMylKUpZiMIACjM7TJpjXVWEVlkogCISKnuWSNtg RRBxLmKuDHXvxmm6e9As6dqa/PsTuzbSA6LOK6wdqVHFQFjMdhUWQeNY1TrVc+vuCLsOJHms0HdB MoC7ZhzhuBIQU+3kOcoZxLNe8VswtOWRg1+p1cTJxyV5MzGOxKAazhCnoyHzYr8VfnGGNqtAYQrJ nz/TwpWS8dRas51VWFwRxctcnBbEbS6WYUxDxdr+UmJDHMVKN11d+GGgoMrT6lr2zAElHpg5V62B JLFy1qfYAQUpJkAxLZp1HI2A2cyTKK1nUnRMfKrsAj906rj5rOcCq1MCA3ClC4MUlq66IXuZYCRl gJ0xsZ4IguCrdvDjNseQeiaRtThzdaPAouhjEVl5uaYiKCqEoigfdZNUEFwHmYJhFBc1LlgzL7jB idC1dUgNim1eZs9hnMmGBp6oyUjT+MkkvtKhtxF56S03DmIyC72BLIKrhH7Ce6daR8Fk+fVaZBMb gimcIKK1jdDL3CsdIKx3KYOMc4RnC2W5hNmpBIwtXVIDYptXmbPYZzNhiCeqMlI0/jJJA2lQ24i8 9JabhzEZBd7AlkFVwj9kbRzPvT07LayKytEmZu2QmE5NLtUtXni89KXkn5PmdRTIJrJK89gVVlaH H09X+bs+Rhm+sYrM3zgmCBJJY1gNZfwShxlcQQUEsl5LwZmvN2Z2Tf4K+jDpgsL3UBwWKcpTUkTT 61W4GUrbI57rYj2UeVTIzEMEGFyXf77jiETb6sNe3CYWkdPmghQDYhAsM6i7BbNYxjhrEoGpFJrc blIlBNm1E6mcT1RiUOtLMJBXDqV6tfNfTFEkDNV4iqK0LDf/AAXITEgW6oz4jluQFhrsEyuohAfT 2vbdUTCGnTwRohHgIw56h8BNGf8AHkecC0ihFZLchKYptWYXE2BOVH6ugaAqpeFjqhLLVyzEjgDo 0GGsCGAEg4EE3rp1nUW8SZNGFaq8o0jKNoswLo3um2o4SK5Fyr0uKWFDYEtA2VbW4j+yU6zRDrnp 1sxmoeCkbXBRHUsliY6T90qqXJnJyAqtV+G8WOJYCMFJa5hBaUFx+AfSHmDuCDk2aFdZbJzslJ0f Rtkz53GkfHgbxvI7em2JZ4vhvOGZP6Mz51xdlVZGvri6fUh5EJn9JhxxgCiagCstNMlgBZZYEJFO wwcsoiCAIoyIUpJRgOEZTnLEcZz0/qE/waMO9bQLZXEuVShWZZKgFrAisebpOSVt6cmmY8xk41iQ SGqANTpyoHu2Fw8FJfvA8xB3ZfCttcYLBxoogwRx88AF4yQDsSjmApdU+lqnz4VQrsxIWU5lYOUp GnXCec5+JHXjsNzEPOABkbIVxiXgMcbTT1wCLNbbKFTZHmI5SjiePg2AZKMsBNqGwNpJjwzNZsIW B9iCjnF5pV+W4andkAbHiKHMSJCDNc/tBYbgvz68yznFywUqu/xj5wcRI4rNS1JTYyoYcbBMR8AH b1Mijk/UsykFkey4MfaJCLHyozFd8EMNqLkhX29cbkV9qipZIMbZRb6TwIMqm2jwEcW6AsJ7ZhjL Dv4khGeMxxa6ZtRi8HlycJsgZGnVWkRz4FqCAzqkkVI8sEyKLIItg3kWJ5UaOOdhT2YMq2NW4zXv L5mMmy2oaQDj3AzIEuIkhLEShIQRMdpinOEoyz1pxbSkYR05inQNTSgHIMsItLwaC6Ycwrl5T+Dc 1whwjZM2cxmY75CdW+mLOMMDsVZxVamOZZVtjDGZV9mKAzqkmRFrbPkGGQwbFEibEsrMGhJ6jvET VtrWnyu4mxjHmOfbE4yjKOZDMAwpQOsyCZF2liCZWKUBRklprUzqAbJOotAMtKmWG3nj/rEZhMBT LC9USGSTtOUhxQXtV02JS8RZ6XcTYA2m2ATKrSxYHWZWPCJQMLnFKQjAMKUSCKOUoEhKM4SzHOM/ 4Vhb2JuPX1SLdk+xtlLsJIgmy0baBApy7QBTnthGQs+3iOEp5xHNlqa0ySGWibdejJiTAqmrFKXC rF5ZiKPgCMpTNMQF4tOlaekCBmi9UelUJbZ7h2IJsdhT4aQoTZsX9ozCkGOBXgac4uGBFa2OODOT lHHNTpyoFtV1OkFJfvAECl24/Cts8YK4SOumyRx88Aj5LhzsSj5ll1a6iuDYBXVCZnGZeQozJgeP g1l98oRkccNkaiS+Swyy4YC8M+ZY9Xmqn47Zrh2R4L+Qp8NIUILVyG6FdSDHArwqp8rK4itbHIPj Jyklmp05UD3LC4dCkv3geYg7kvhW2uMFgw0kQYI4+eAC8ZMB2JRzEeeqnTdOPI66nTEmv54DgxvH 9ozbOQCAGbjrEiuOmgEWDtnMbwj59urbUduTar6dEzrHaYIFNtR+CUV5JlwEeePkaaAJnFyXTgXj LEyx6tdUXcgysrY8THwsLAFwwEEaqqq4+8pYAooACoclIZiYwxmydhiRDTpwXzRkaM1pXiuXFoyk ypVEbFGxZXjFduUjgUyYgcYUZzkkY445v/DlX1Fdqvj19WkrXIL+havLsJpAgsqHdPTEMTaAOEPM xCFn28iTlLOc5+WX2e1V+B9WFRZar5NdaJNVz6/oWrxb6boJrMi3QUwzC3AknHcCQZYd/Ic4TxiW LBatf9Vrl3WgIWnFKj6imI84Kv8ACPnJ1OWCMGOKbOSr7m0TOZRznqj1UhHcNTuxORfyFDmJEjNa xQ3TLtwBz68zKfKwuUqu/wAkGMHEOWFzl1SZIhgiKRNmg1FJhSZIYlJZiSdW2pIwJZyIuVWmV8zj nIGDD8SS+WX2e1V+B9fLL7Paq/A+vll9ntVfgfXyy+z2qvwPoGlvc9uWWh2xCe+OyCtYVnasHDMP RfCyrlWSwtCFwRwqxAxwqnlA3KWs2gj6ttTa1ugq6mybFfRgLR3j86uu4/d2wWar1HU8GtpM5Qz3 EJ5RdBiED5Vt2BS+WX2e1V+B9fLL7Paq/A+qe20tqEbmqqdjKkhejXSEn6NrE5kERl2iDgpa52Im ERFfXXCFy4lEZmWBx9j3ubWjEvhJGt9K7kpzxjOISLd1I5EazEUfGGLhJRVOEMzzqBtljcIGEuq/ 3SKxbH7OA02qNkeMfq7+NLbm2VMZlnvmVO4667nPb3uoqh8YzzjonuZWk8ROnh600wac0xQMoQ2G bKmhD4FhhwLJ2rgHbmmKmSz3JKq1YIk6W90eqTCJ+uMBDVBBQgMj1c1kKlXYsyk0OJTVjexWY2U2 HmVrIG+eCFMKI+mfc9vLDzsqn950vyzdzNU3hnlVK37vHEvRCD5IYGdO1NB+QVFxV1JLa/wa33OK xn/0rrU+yb/59FqD7Dn+u5cRfS/9uWCpf1y9kteWYDDvNThKCtiSTA8K6X3gEDmShF18b1u2piwi z5uhNVQqDIlX5DsD9C9zKrnmIE8o2mpzQm4KZmyCyzWU04fArsJiXOrcsd8OiK4Sr2pqtVbESdF9 0C2H42Wpk8L0i5BNhOhQ4YlMrJcGkIJM3xQKNqSisXEKxZNlV6Y7ZlcfSWgaV4bFfRkk7qKaxIkG S/7kXBWEzxsZwSkX3psYXdMvNuzko4AVhTdh/wAnX29abjWNU6rYoMbYi7DiR4MrG2jwKAu2YcJ7 ZhkFPt4khKGcxzXaorYcblbgH66TIGT1dktLbaRPMOf/AC/YZUmYSx2a5lJ2ai3JiKNhUWIeRX2q Ldc+vuFFvpvAms0HdBMRxboCzhuBIMsO/kOcZ4xLFpph2UjwWlBitf2TBHZVTUdxNwW6MeJyxjyU d2MmXBZqvKCYPxsklV6hpjyWsqlsTi08SJGMswz2IufaIKZVGw5Io6v5xiyoYy5O4yyxmj1UhHbB cJRPNfuWfDcFOa1ihumXVkfgWAGkuThcYmtjkAxkBByywm4uBtNsBVmlWRQOsyseEhHXYAWMhGAY UpDKIkZQJCUoTjmOc46t9NFwWSYi8ulaN5Sk9RtynOvPI3FTGdgcMSSsJrrwWjaKPBB5DFiWanUd QTasad0Lq/eZ4CNty+FUa4xlzkSeBkib4IHFyUznXlLESZ6q9UUkzSrbYEjAwyHIGRTEYqrSzAu8 o4Oo2A6psiIZeZAymswwvIZp/p2epbUgfFQJIoJkPkBLe1kIkkKlaUQsk3nCw8ZEgsfCi0WHzw4i jE4WFvZG5NjautWL7G2IW+46ebLJtoEBhFuGJOe2EYxQ7+I4QhjEcV6JVDF05WmC/qhrECcYdePM yjrinG0kQR7wgM1q/FY5wRkasgBKKtZ8ICFCAxDhEYxjjiAxjhjxhCEI9oxhGOMRjGOMYxjHbH6u rfUzO2RhcWFqlIkxxzYXDXwaCsYTYWmYcZ93H4rTk0KrVeaCImV8x6sLeyNyLC1ebsX2NsQt9x48 2WjbQICALdOWc9sIxih38RwjDGI4R07IplqwYT2d44tx+QrUqbcZ8eLJI4yZts6daIkBN5Um7h4i TKypx5XTTXAoooASyqqwoAWWWBCIgLrgFGIggCKMRiEOMYDhGMIRxHGMexhxzUevm3GzlZaaZt6U 7LLJ5yKdhg5dOSIY5iykQpSSlMk5SnOWZZznr471v9JUP5a6+O9b/SVD+WuvjvW/0lQ/lrr471v9 JUP5a6Ycc1HrBRNQBWWmmbfToFllgQkU7DBy6ciIIAijIhSklGA4RlOcsRxnPVh6NzvSOc36V6ns epem78+D6hxf3Xncba5fG+A3/PZ+D8fbTamFeaxi2cPGuVA2encYRu1OwrFfYjSukWCQnZ2uE0fL c6ptBk8YyP26+O9b/SVD+WuvjvW/0lQ/lrpzTOjnrayWqAiWtW7Rusc73OfIjayhatZUe0iOYE2o MCi0C0DYLEhHAI5n7Leqv7TVCOp67ObAK9UasBXs0P7ovvQm1VWJcuK2BZQciSYB7LdflaJpYcyH 471v9JUP5a6+O9b/AElQ/lrr471v9JUP5a6+O9b/AElQ/lrr471v9JUP5a6tU6G11E8nbHWZIrdv KMrKsrwKKbCIE6+vEA7gphG8XMSTYgkjDMsRWjj2F1YgKONQaOUO5LMBrRnY0EJYPZqsMFIvPtVh wxbpfCMZjmFgmqnNm13IdE0PZMQHS6qJIldkuRDirqaAhxBjfMyCEIXCgPTtqIm2WrQdIsrAWCMZ J1FyrHkmotKZctK0MBtnNYpEBj1WnWXWnnycdwqmwlniNHI2gGvDx4WDB49H0Bay8K/VDsWqZmZU wARv8K5EUB5FiIxvXgLIpKYw0XMLJRJRVGc7Vg4v0/ejWkn6Ho5ppZntlsWLDUeP3awKYBJQCSFP kZaxAuVdyBJ25gNHSsA9uhK2QAj1NcmzZ6gkOSzGQk7baFVFwAByKCtU7eYt91YVq1blRaKq1CWe mNKosExp3SDJEshjM0QvahD5BtHTgIBfO5XFyamV8+VCEV3XEWdi2JHPS7TgDB1NqkKlnfxNNiOV YR5BKiq4bAFZJGrk3JYsAkDNiNsxYCk0dUKUQfpre5zVNhK/ZGA/qgYpwIRGuVyFurrmYyVJERrN vYs8bLi7yy1aDfBNG5FInWp9SOKEhqS1hg2gYEzIUtqp8jEJ29WUTkPVJ9ymFO3XHisEtC5XydZo fl0LT1rYTDpXVE8qlGc0sJV17PA41triGFmMjm1IUKZuUCJL5E2s9ZsZBTg2+n9QwGI9mUoauiVP g+wxbuYJIe9IAidgpqAcsiDLNWDcEsowbXYaBPphxxg7bjZystNMlmdllk85FOwwcspFMcxZSIUp JSmScpTnLMs5z01m53vezp0C7ltABICm+yyWUa6nySJxuLBeiu8dlxQRJwXQKrEyLTqjgrLTNpEk sqkySvemDK47aqJOfCtFo+ZobbMIZwUY2GMKODaQIaTCpsYo9VIR3D07sTzX7ihzEiwmtYobpl24 L8+vO0nysLlKrv8AIBjBxDlip1HUF3a64SC6v3mCZRbkfhVGeMZgI3UjYIm8CBicZwB15S8xS/wG R168habv4yt6HOIzyFfBJdrGpiXirL4lWO5lsqBkzNanap5NMTYPLPWJRzmMo5xKMo57ZjnH68Zx nH68Zxn9eM46rrErQiahrxDrtTLYlHBx2QcZHF8goKpiGK6CPFmHCgMpAmY9cExTV7Ph1hyrj46e 1ZzbStFgSa4q52DPe0pVV1ZR8UkOUkZGXDVENN4FePLRa9lma7ibB1HFDiZVaWLMDKzIJxKBhc4p RKE4SxiQRRyjMc4xnCWJYxnqv1ASAw2gSFqr5cODbIbdKI5EkLJQixkTqh07MYwyYGpF7CMmjnVN L9IrVacI9TXJsVmn4kisxkJO24/ayTOccigrVO/iXYdWFatVAXlSqtTjnqGr34+NDo11VoeJjcj6 nf4jNiuAqyHIQfwc0Frawjlgso96tU6JlLQhA9NyRZwHUWoczpqLwJiLK+Sw/iVsOMG1W4YrEsy2 HVsMYUuGqfDIZBPn2/ODrf61333/AK+cHW/1rvvv/Xzg63+td99/6+cHW/1rvvv/AF84Ot/rXfff +vnB1v8AWu++/wDXzg63+td99/6+cHW/1rvvv/RrG3sHrWwY2+Q/ZNnedPtCgAW80zMpy7QBDCPz nnwEOA49oRjjCGngfBow8bK/ZwwJcqlCsysJ8yuSiY83SckSiI4qsx5jICMjgkNo4V001wKJqAEs qqsKAFllgQiIC64BRiIIAijEYhDjGA4RjCEcRxjHQNZ1q3hT6t78/ZD4gU1IvD958thMKwPWlcQs R7zLL1hZC1A2TxhGPsXVcOY2ptLBUrL+RoMSk1CXIHU2vLOdqTprFNOWbAxDQYlbL2BJKgVKlIzk UmcG07pvJaaj2iRIszkU/wCJ24pBccUPizdhniuq5DhunVqMlDEw591001zNuNnEsqqsKZ2WWTzi IC64BYkQxjFlEYhDjKZJyjCOMyzjHVfp5f8Abdn42N8zhgjAnL9lZYVgZaRAreCUOOJRCGFV5cJY E2YTdmycxNXIR8b7RqTLRMQGnH1OgjKDFiBpk2QG/g4YM21fHByxx/E1AImbtBkD0GuqNY6pqq9f c46FdqC2RSBulmcuyqs2IAt05SGJ4Qx5lJMku85Szn5wdb/Wu++/9fODrf61333/AK+cHW/1rvvv /Xzg63+td99/6+cHW/1rvvv/AF84Ot/rXfff+vnB1v8AWu++/wDS/vh1DeXvD3eJ6zbP2fF5G1v8 fmnPsb2yHd2/Hc2heffwj26CxZMFHpq7F6Xfxjg5oAhnPnX2vGGwEcy1rnbcPIThwVLVuNJUrLEI 56sNPMfsOw8rGhZywRcSd+ssyKvMzIYWfNKfIKo/DKrEuEyea0IOwWOFhNxcyjihyrNKsimBlZkE 5COuwAuIkCYJYyGURIxmOcZQljEsZx0nF1nAdO6kyKmvN0kRrLZLP+GW5ZGcTUBisdnjlOtZNhSn at8iDIxIdv0bB4TZi6crTGQ0urmZOMOvHmAiWIgEWTII94QGLJjlL84IyK1pzFFWreFfUVoeTY2r qtcgvuCFvuOngssHdPMYBbhiQhuGIMUO/kScIYzLFZpmriOWFBYm+9EGFyW1oSEObaMw3DT3GZxx gYyMMZUUGsgMsl1Q4x1a3QNI+dOp2p9Pfx/Sse9MgQu0z+3YJM49TZK1bbTostJ8/gTLMagu3yN+ 0Olfxzr5G/aHSv4518jftDpX8c6+Rv2h0r+OdfI37Q6V/HOvkb9odK/jnT1HeImrbWtNldxNjGPM U+2JxlGUMyEYJhSgdZkEyLNLEEysUoCjJLpd1PQ2r202wCZVaW01cnXZWPCJQMLmEnIZgmFKJBFH KUCQlGcM5jnGevm+1v8AVS9+4dGrbeveqrFfb5CFiodFwG6KBxbyrMBHHugKMw/OGPMRIEj3hKOc 1mpakpsSUMONgmI+AQt6mRRyfqGZTCyPZdGPxiQix8psxXfXhhtRckEbykeDY1VkCLCbgM58Cjzn Mc4zGeIlCYRIzCyseA2FWBlWZEI4iDjeaVfltguEpAgx2LPhuCnBmuf2gsKyY4FgBV3i5YGJrY45 85AUkc2unbgOQWNQ4VNmPiaMCbefgmV98QSETcDkbaLGRQwymcDEMeBY9W3orvC9dpH9OWv7uqfl U1ntc1P96AbY3tgX7wtsti8fgTj7y79H90O9rcyrazHH0rzAZ2XLfdlFu4U7sQ3MUkQyTCQqbCk7 B0hVWBWVHLa6T0DUHICw1IrN28MKZwlBp7BZrCTjKIYjJC8ZC2Frac8oJV7KbipFraEvZl2i0rqS 6SiWS8m6mjs7FbB4RhKYcnUWMLBYRIOUh+XnGM4ZzjtLHXzfa3+qt79x6glfU9pSOEBFkatvXtVz JFpzIKDEAuCCSQJFCYcS4jmGZiJDGfKEsY6heab0wd6qKcy4XCv1FbBia+cQNJaNpYJFZAMvkCTI IEW5ImFt3fWOMfyN+0Olfxzr5G/aHSv4518jftDpX8c6+Rv2h0r+OdfI37Q6V/HOvkb9odK/jnVd p/XdEWptNOiHVptZsKN4FpUhxmNbkeKVgvFLWqRFWmG1DM2ILge5bTDbUFel/dDpK/OK6zxhbVPF DnZTt4kjBO2a/eJ7cbkZYplmJNdQbyIyNMFsbyG70tph5wPvj0iHCHGlOEWXNOg2h1NiMMFVh7KY yDpGNqbh4ESWcsjxNbr4J7YaGrWCDu9UigWxyLeHlXTESlgfHIEyDMS3Da/p2zkTi7NWO6XbgHJV ZE6svdHs1v8A1aTTG+H/AOPWrdffT/0Uyb6D3/uOvaF/y/4Ude1gDEvNMAEvZRHJkvK0xvnIWUVB AYjvU7bcrCbPkmEVVO3O8Y/FSgHpn3M7Y4cYUCez0nnMFgTkOTJmruqyTfGV0+6zm2RFBVhmK0bs jDUVFEwB6D7ptUOESpwTq9UCjhQOCrTNhWquJfsiOy0M7AKdnMptnkpKqwIQFK1kmemfc0tjmzJo x7PSecwYPCM4rmau6rJcnINMO2t6siEagF5MSuyMNZbaTAbofunVkfBpLgVepQQEmIR0iFktXXRC +QWTOgaMlTGj2fKdM1d4YTVqTZN1VaXpIhlZWx5CDlk2ALhGEJWm2jkz3zgKiYDtFiKBmSQDkaoG GZCASp05UD2q+nRCkv3gCBTbUfhW2uMFcBHnj5I4+eABcl052JRxMsurXUtySY66oUk0faxDJzZ7 xGBVaJSBFNt1kgVFIEKIc2TChMo45zPFtqS3JuWFw6Z1jtI8xB3M/BKK8kzBhpIgwNNEEzl46YAA xPMR46qtL0kQysrY8hByybAFwjCErTbLBc95YComA7RYigZkkAyGquwzIQCVOnKge1X06IUl+8AQ Kbaj8K21xgrgI88fJHHzwALkunOxKOJll1bajty7VdTpGdY7TBAptuPwSivJMuEjrp8jTQBMw+S4 cC8ZeZY9XeqrHGIM3DmT4BjbzhRQUILV6OJiCvE2EK8CyeGJBiZnY5DHkchJyrtL1xONyd079jJc 7IKutVhuNOngCP8AoVUiYiwGbJpJIja3JwaNfUVwePX1SKlcgvuFLsJoggsqHdPMpy7QBQhuGIQs +3kScp5zLP8AgW2nLce7X3CJkmO0ATKHdj8E2ryQsAG8ifA3EDzAXjOgAxGOZij1a6Xu4hjZVJ4i NlY2DrmGYImlGgEx2zkLaZwNCiWAWRwNgbQF2YlAOp1OrghQrkkvapRIWEbGoaxtvKziM4IlJGPi 4jFiU1hWiqLRglwviGa+3rjcivtElbFBjbKLfTeBBlU20eAzD3QFhPbMMZYd/EkIyxnGOrbUduXa rqdIzrHaYIFLtx+CUW5JlwkddNkaaIJGHyXDgXjLzLHq81U/HbPcOyPBfuKfDSFCC1chuhXUgxwK 8CqfKyuIrWxyD4ycpJZXi4U4E5HFFs6y8G2QrZnHByrqlZSEycYvKYlyOKQNPERzZBGWSxr6iu09 rdevqkVK1Bfg05dhJEEFlQ7p9UFOXaAKENwxCFn28iTlPOZZ+JNb/RtD+ZeviTW/0bQ/mXr4k1v9 G0P5l6+JNb/RtD+ZeviTW/0bQ/mXr4k1v9G0P5l6+JNb/RtD+ZeviTW/0bQ/mXr4k1v9G0P5l6Om 5pzWLSjQSrNKs1GnjrsrnhkRgHCXUchmCYcpDKIkZQJCWYyxmOc46uD0Cx0qI1pYFpk2s5kypVEa LOvVYlJhyUjLqZEIspNs5lOGc5OXOfPKF1TtTRs6xoTiTQ8QlIRwy8o5zAkZiKPP/IUBoEAcUphO MgpzhleTmn9YAckAUmgLK0rawWcwjk4l2i3aRWQDL5QEwRNSZoYiSawJSyKNhU2OntbsV9ok1XPr 8GmFvpugms0HdDqgZh7oCTh5iIMsO/kOcZYxnFh6NzvSOc36V6nsepem78+D6hxf3bncXa5fG+A3 /PZ+D8eq+3rTcewqnlLFBjbEXYcRPBlU20eBQF2jihPbMMgp9vEkJQzmOafUwNqDLAuNbpikP9wu VOwrBbIoMtEAKZOzleNkvKJVNoMmhDLHj1YVNiHkV9ok1XPr+ZBb6boJrNB3AzGYe6Ak4eYiQJDv 5QnGWMZxc6aLg0kwG5NK0bzzl6kb7lrmN+SiQ2TjH3SsSqgwpG1UfXBmUQd+j6/tY+FjqhLCtOtM bgDo0GGt0hzxNkQS+unWSeUlFc0YVqqLSr0o2jIBdA0BVS86/S7smrlmBUzgev8AKuBCXBIUSmD6 CBl1NvGWRZnZNuqNIwnVLnL1d3OokdRv3tiEdYjmoTRKslU4mNpvEyN36GDHsHBKecJV+cqDrRSA 5LnNBH8Sa3+jaH8y9V+ntLAuarT8Zcy6xZZVWYtm4ExlJUiyDTsM16HhzMYK5OLTxAkmmElUqwbq 7cvqnUT2pLY41oN1iNKyurSLwGWC4DuWNe8Azj0zFshRzNViCdRLtgq2c9fEmt/o2h/MvXxJrf6N ofzL18Sa3+jaH8y9fEmt/o2h/MvXxJrf6NofzL18Sa3+jaH8y9fEmt/o2h/MvXxJrf6NofzL18Sa 3+jaH8y9fEmt/o2h/MvVJc6dR1Ghe1wSVj2bdNISztTmZGlMQIpfv4CevcK34wjX4y4OyLI7keCq EnTHuZ2xw4woFiz0nnMVgTmOTBmrqq3N8ZXT4Kzm2SFBVhmK2LqbDUVE1Ai6h7mNXLwWT4FrqZiB HBFM4QUma6lILsBY6QVjp3JpZy+Izha3bym1Unib+ThQ3FllbSWpcyAxhk+YV9Xd5jDFfb5xxz7W WMhhUOkiRJbZaXetGMr04NvrTxbGeEWqS0CZhwS5CNWFDnMpWFB5jcUwDDhNkq75IuErSDLlUH74 1gi6aa4VFFAiWVVWFACyywIREBdcAoxGEIRxiMQhxjAcIxhCOI4xjqxvx4GS0PMVTQgLgu0W3diX IpkyMBobaKoHLSYz7Am4o5RwyE7QZdMOOMHbcbOVlppkszsssnnIp2GDllIpjmLKRClJKUyTlKc5 ZlnOf5NC9o3jV1rWnwwm4DOPMc+2YyjKMsSGYBhSmBpY0CLtLEKsyIoCkHKi1UhHaBcIxPNfuWfD cFOa1ihumXUmxwLADSXKwuITWxyAYyAo5ZftbHSmWbCzcasHmM3+p4ZO44abDJswFdQHHJTEnPMR whCPftCMY9sdfI37Q6q/HOvkb9odVfjnXyN+0Oqvxzr5G/aHVX4518jftDqr8c6+Rv2h1V+OdfI3 7Q6q/HOvkb9odVfjnXyN+0Oqvxzr5G/aHVX451V2+lKD0qwY1SlWmY9VunvNItTdskDtWVi4CPkd Nee5EeC42/HE8QlOMutNah1Dpr1C3sPWeW36zqBXd4uoLVIHwCVqstDwWWCP4MMPLw85+RJSln5G /aHVX450rKmwb3saiAdypgckCzr2VixjY0+CSOVtkKUTpMLNtjHOa7w1ZGeZSbcL0Jqy0qAmpqY+ azUER32oV8mJ/wCIhaxTBqQkhAslO2JlyBJYtspbiRVEqtCOPkb9odVfjnSuabBvexqIDDlTA5IF mgysWMbGnwSRytshSiwkws22Mc5rvDVkZ5pJtwvSXNZ3tQ6c26S83TbjTGwPHptuXddcdL6oliPI fb2Obcq3OwLAgY9rnBZ3tPac3KSk2jbirOyT+JW4dpxtIvqbsZcZ5TZ5lMrT74sFDn2VmNb0pbjU 7IouWsp29koOuOwOEs1C0KS0CoUVd/4M2skbm21yWBsYUIsqt8jftDqr8c6uVdCVwa/TNab0xGQX XLHFkRPORuWvMbtbeJwON73pxVDhWLVQQLlUbU2ZE6rMa1pjXOpmQDctZltbFKFcywIcp06w6O2G mUNbLuCTmStTdYww1Aw1SrJq/I37Q6q/HOtS6e08n6fUV/o3EU5DTW1ytP1Tp/h3Tssz82WTE+EN Px8/CHiOMY40dUWIeRX2uqdP1r6+4UW+k9bKLNB3QTEcW6As4bgSDLDv5DnGeMSx8jftDqr8c6+R v2h1V+OdfI37Q6q/HOvkb9odVfjnXyN+0Oqvxzr5G/aHVX4518jftDqr8c6+Rv2h1V+OdfI37Q6q /HOvkb9odVfjnXyN+0OqvxzqaVAtqGkTIeTRFanXevK5cjMxjFNiYVNShHI0hBCORcx88wEOOc+M I4x/h0n9b1v9h1L7NG/9Q/8AdV57LnTJcAi2cHJpmj4hjCN2p3LXMb8lHSrBIXulYlVBludS2+sC UZH79GWZEQDC5SAOA0JDKEwp5GURRyxiUCDnHMJwljEoyxnGcd8dIagmMp6sojVd6qDY32KlzI5T yHJxE7FSbAnZDGKa025pYRm2uu0efS7ibAW1GwiZVaWLA67Kx4RKBhc4pSGYJhyiQRRylAkJRnCW Y5xnq50yXAYtnDyaZo2IYwjdqdy1zG/JR0iwSE7pWJVQZbnUtvrAlGR+/TCTq5lHEzlVbVZFMLCz K5JCOucJMRIIwSxkMopxxOE45jLGM4z0jqGQjM1hQmq71Nbj8hmpb25T2JMDnjBk2wJ2QhwIpJua WEZuLLtHJhdxNgDajYBMqtLFgdZlY8IlAwucUpCMAw5RIIo5SgSEozhLMc4z0XT9VYRDqrVEeKEY DYw7XUU8kjZWvjxjxHFmIp06kpkSZyZth6sPI9Ofb6Lq62AbNNpAyh6/OJsLwc1REo2kMYJEG00G oELnurQcAYbJ6TfEyg0wAnRaCqfiHVOqI8UIwFxh2uop5JGytfHjHiOLERSp1JTIkzkzh3qw8jU5 9vprUVn+2joj02wWWgwQJDX7LJS0xiRgHO8kj6c42aGGlpZdhWwnBtKboM+zWX/T3/atH17n39b6 U/vyH8xSf1vW/wBh1L7NG/8AUP8A3VedCjqJ4xLJoOGU6OsBhu2aW5MFpMYHMgFFAYlksoGsXEht YUcGjJllaYOjpKnNpbTJgxDKhrHMyI1iSx13MWtuNdJuxA7Fo4y13gvVSWirAqB2l5Om9h9G2TPn b6S8eBvG8jt6bZnni+G+6Zk/orOZ1xNlVZCurS6eUH3JPPsH7p1ZHzWc4FVqVeA3ClC4MUlq66IX uZYCRlgJ0xo5wgILgq3bw4zbHkHq30vqdjZ94VIzdq2M/UXDm0mnMhHsHhgTXb3u7iqqglyRkatY RSRrf4YcxrbU7WCCCwSK1UlIhZxrqhXG2irCJDniIko+Tj0V5QWLaNPNBCLDHhhGio0TWNrZHwum mDGPMk+2ZSlKUsxGEARRmdpk0xrqrDKyyUQBEJGk0tX5xMNSnARWcRIPnPEzk9jYSGVhqYcvvFYb 43IKNXBcKgzhcIo4YccYAomoArLTTJYAWWWBCRTsMHLKIggCKMiFKSUYDhGU5yxHGc9XOpS5NFM5 +NSqm88ZRpFO4q5fYk26NY5B93bESp8qStW32ARjE/b2Dt9OWz1PYC8MchI0hbwoHCzxWxfrA8iQ 64JnQcGdJnajFgBYY8eo1fumj4TUNuANS1aBSJHGJOW6S6r1pGaXdMyGPianTMmcr3h6dUKp5MYN hVPJ2aDOJSXer2guJnxCchTyFleZAlxEkJjlmE89pwlHP7Uc461l/wBPf9q0fXuff1vpT+/IfzFJ /W9b/YdS+yj9z/S+PQPTfWYWN+A0T2VgC1efcgBHBFY+icf1EuJtrFPYyOBRhJ2t2yjYYccYO242 crLTTJZnZZZPORTsMHLKRTHMWUiFKSUpknKU5yzLOc9LpprnbcbOJZVVYUzsssnnEQF1wCjIpjmL KIxCHGUyTlGEI5lnGOlLjXtgbTyLQYMDoa+EffFmBYNYjGwM4GadIaEsItcbjWzEwFMm6KoeFLEL PTVsI2JKGJKvcKDAB29TIpIoW60YGZHsuDH3kMbJ8qMxYQYnhtRgcKPVSEdw1O7E5F/IUOYkSM1r FDdMu3AHPrzMp8rC5Sq7/JBjBxDliuvqVsb1XaLQaUYFnGcZjLviYyY/4iZXLGa7axOxlWhGWPCB hThi205bi3a64SMkx2gCZBbsfgmluQFgI3UjYG4ieQScZwAGIx8xR6vNKvy3DU7sgDY8RQ5iRYQZ rn9oLDcF+fXmWc4uWClV3+MfODiJHHsL7ptoOMjORdq9MCnFQ0RKjNxbS5jL4ZhdsrAGadftJMw1 IWmCjZVs15x6U0BR2Ew2N1CbWpZKGlAwKLMJCBVHzxs48LwsyEYiB0LEUa/Kzi5a66xudM6mtLp6 iasXZA01kCybyeUkGNiwffW5MGWeSzByvVV5NQVMiOX55sFWwCxGGoUIErzTEJW+rZFapGjEDk3G g0QC5QNR8GI8V5dRgvFOdcRlIxZn1gumrkwE5G3mqVn97pHs5mpI/Iri52xnZGkBUtillS1ipjIF 3wRlnq01adGFaa1hWYMmI8mRDLX1CFWSYyzGKXgeSWWIDlHMgRLgGSnyPeJ7n39b6U/vyH8xSf1v W/2HUvtjaOS96enpbWRWVqkzN2xEwnJpdqlq88XnpS8k/J4zqKZBNZJXnsCqsrQ4+nq/zdnyMM39 jFZm/cEwUJJLGsBLL+CUOMriCCglkvJeDMwTdmwyboerqkAc3WjwNsP5zJZebmmIim0/HJZg3WTV BBc9FabgRQXNd4XCy+4uEnRfcytJ5kBzL1ppg05uFmFsYcM2dNCHwy66ZVwNXIO2EgicHabs2mrR eI+gayrVvO40j5c/ZD5Hb02xLHK89lMzJ/RmfCxFvNLo19cXUDc/IhMeym00LB4pnNybpoHnjKNI p2LYsb8VHRrHIPslXFaBlSVq2gufMYn79V9RXB49fVpK1yC/mUuwmkCCyod08yGJtAHCHmUhCz7e RJylnOc2mqLuZo1tSCJj4WDk7JZlMJVVZcXeMcnbbOBUOSkCvAhozZYXXiQ0LbUduTdsbh0zrHaZ 5iDuS+CUV5JmDjSRBgaaAJnLxkwAXjLMR46ptNCwaKZjcq6aD5xkjSKZwSxYwbCro1zkH2Srysgk rK1bQXPmMTd+l001wKJqAEsqqsKAFllgQiIC64BRiIIAijEYhDjGA4RjCEcRxjHTCbi4G02wFWaV ZFA6zKx4SEddgBYyEYBhSkMoiRlAkJShOOY5zjo9voFxXTdgckymo3YF97ximOGUpJlWgZmjgMcn C8UKlglOXFTTWqVhyn1Om1LUt1FjCGC7DUcdjAzMg4sqsDkRZ1WRBFHBpQxl5kEWES5kOeMde59/ W+lP78h/MUn9b1v9h1L1saeQ8ER8jDN/ZRZWoVCriEXKpnxLM7js+QrEaKgmXPFkbJADSgdoMbNv Pvs1DHbyKytUVoJ1xV3Mtrs0tXLlenux8E/J8zjzoyq5IgdALTK0/wBAyig5e9y6iW006TEW5DAr I8onppss4lgzdQTwhPs02aVexWONkgd7IoV9vXG49hVPKWSDG2Iuw6ieDKpto8CgLtHFCe2YZBT7 eJIShnMc02pg5DFs4eNcqByPGEbtTsKxX2YtOEWCQnZ2vE0fLc6ptBk8Y5P29h1F4d9O3O/aacLA bm0BObJMTpZsNSNvu03cQTSw40YqZq59nIC2HHF6vc10lNV6llyXINByJ+sqY57VtQSOWDYFKeI5 tW4bKTcTOjr7MGT1IdvoGgKqXnX6Xdk1cswKmcD1/lXAhLgkKJTB9BAy8k3jLQszsm3VGkYTqlzl 6k7ahmDUWq5K2VkAo2QGr0QinioqWQGL4xaViy223niqMiZsS17MS+nhJn2kqNR1KNxXl888d0MS 7JZgMtylC/qOi8MDB4AfTIB1bdlJc4p58um7b3PnfWkYeZ/e4/nAroEMcXG1XOYxhS3/AFydY22M VbIlQBVB6w8TvPQybi51HFNfaZWaVZFMDKzINQpCOuwAsYlCYJIyGURIxmOccxnHEsZx/MU62o1P UEqa7XvxIEzHhuOqpvprisQ5jLlJQ58zzTzmImShCJvB0pMqMLpprgUTUAJZVVYUALLLAhEQF1wC jEQQBFGIxCHGMBwjGEI4jjGP0rBASgS6jrQmsNMNZgPkDsBYgSdcM5GUxiBeDDitY5THCCQitkcJ S1q3h0HTtm/Mel9Uk4hBGLLh198TA4VlpEeFmJQm3MQ6ZqUJpLyE2s7ZsSBTg2+qD3wq7/vdu1rt TsFEnI2P/HqXeam3vUln2D6qgPZ5vGV8yY2Iex7UURBZsyGDV0SjOGOOzbOYJMe/Jccs4CooByyK OZFItwSkiNxZloE+mHHGDtuNnKy00yWZ2WWTzkU7DByykUxzFlIhSklKZJylOcsyznPUnLSPlp7S fCtLIWRJsCsnZs96ulaXalLySf4rpn5cNoRE0T15MqlsFmYfpU9vbVCprmhsauzq7gcIgtFi07kn lFsujxg5q7fIaRa08iJTkaZ8Bi1ELAv58Gs61bwp9W9+fsh8QKakXh+8+WwmFYHrKuIWI95ll6ws hagbJ4whH2LrOHMbU2lwqVl9I0WJSahLkDqbXlnYak4axTTlmwMQ0GJWy9gSSoFSpSN7G4JMxNpz TUjU9HkU4EAzmE44tLYZAttqsRs3Rfuji0hQZp1qmRAQPEvkummudtxs4llVVhTOyyyecRAXXALE iGOYsojEIcZTJOUYQxmWcY6r9PL/ALbs/GxvmcMFYE5fsrLCsDLSIFbwShxxKIQwqvLhLAmzCbs2 Tm/ya80q/LbBcJSBBjsWfDcFODNc/tBYUkxwLACrvFywMTWxxz5yApI5sqC6VmnZ1TU1WgEjLH7U f1wMLMox3VWRSGymxHG00qYLIcyEWEso6ikIzNYQJ6u9TW4/IZqW9uU9iTA5YwZNsCdkIcCKSbml hEjiy7RyYXcTYA2o2ATKrSxYHWZWPCJQMLnFKQjAMKUSCKOUoEhKM4SzHOM9M6ZRcD749XByhxoz hJlPTp90dtYkDNVkey4MZKRfdmmeZHWXK08jVDGB9Ne6DeV+C11RmK2mMNh8gsXeCYmxbL/vEe+a MY8AXmZI60n3+QowKxpM7X+UD906rh4MpcCr1MCA0xDOmQslq66ITuFk7oGTJ0xsdnimTLW7eE1a k8i9W+l9TsbPvCpGbtWxn6i4c2k05kI9g8cCa7e93cVVUEuSMjVrCKSNb/DDmNcamPuwWYLxqdMs ifuFMp3FXrYFNlsYCzH3csBrF4pLVt9kMIYY8eqrS9JEMrK2PIQcsmwBcIwhK020wTPfOAqJgO0W IoGZJAORqgYZkIBKnTlQPar6dEKS/eAIFNtR+Fba4wVwEeePkjj54AFyXTnYlHEyy/ymwqbEPIr7 RJqufX8yi303QTWaDuhmMw90BJw8xEGWHfyHOMsYzi500XB5JgPyaVo/nnL1I33LXMb8lEhMnGLu lYlVBhSNso+uDMog7+0+v7WPhY6oSwrTLSG4A6NBhrJSHPE2RBN66dZJ5TMVjRhWqotqvSjaMri/ yo2oaxCBdUaWhzBlCLHMsKEe5Kzq8zyyvCcFoEncq4mN1jBU2EawETW59zquoCZIOqBAltfHFkW4 KoSkPBIDxM4J7j7RlKuBAb5VJPc/KxgKmj0ummuFRRQIllVVhQAsssCERAXXAKMRhCEcYjEIcYwH CMYQjiOMY/yw7SQAh0zqkzlnQxDNaOFSRyuS3quGuBWKQK5t2HpwhgktGqYQFBphoLsQqSdWkHUe pIhuL3dhKB1sThLNXUkgZRRkGaxIuOWmzE0lrhm2wM8wTF4/5Z7kf/8AN+gf/wDV/mP/xAAlEAEA AgICAgICAwEBAAAAAAABEBEAISAxMEFAUFFhcdHwgbH/2gAIAQEAAT8h+MQDP7KAqthqPMpZf1JQ B0CBF+sdDmKwXleDPLR46ZX+sAq/qCik3KJ6YdTiJP1j+atXyY/WOMofdq0PqjtLQeTsWryhUULg CfKUI0O9gk92mLW1BuBsug9GJCuNDVysrHTK/wBYBV/UFPqHFiHctGROiWSx0YsKczVHVK03SbBR LqKRFx4i3o07w9rUPFutWGggajBKYag/UPnkIQYf1MtVEK4BYddhWnHk50Cir+RceBLbQ5BvHSRD ekYEQbKnrF2Nu8Ken0GYxa2oNwNl0DcIfpNFLToc3VBIPIhws+LMkoL1GqCsuMuePl38to2VTHb6 5ABQqBVgdcKvp+nX9X2Hv1YaMRbdwdYsxVUfAc+cNJn97818NbV2KoQaQ+RQZpHGkUTSJsMv41UX S7UNyXugKW5FZrH8FMv0KIuEQu2OVKIhFlifPvh3G4JiKHLbUQFHBepCrxNXyxijACzHfCDFkwCU 0yv9YBV/UFLgvXNgGivRz8L69fL6HiLKhDqXhtkAHExeY+ToLg/ebBfQbseIad+ck3QcoCvNDFdD HnEa0VWNjKhxL1Z1M/H/AK0jyVdKR6nOAULIwG69K63Cp2TF4C/DI0TsI8hBLGfkNML/AFgFX9QU QLMc0KREqJVzKcIMaWikGsnjCB3At1LXNlssfLe6KCMTEwux8MIxSwWWmAXbWJqXZe9c4KxGEfWk Bc5XqoZCDxSDDZwvlHi9k0OS9Ea7vSl2Y4efgVb3XCr6NgYgPMWgHXhRcLCQKwaNo9UNh/B1WQEQ Rr0eoB0UP8YcxmFgLqgCSnGdxSedgVb3XCr6JBSSN8rQavx8v8r/ALz3oHe6HIV+9AGuFQUNOO1n TxzHQrmg9Udc4y7XeU3u75umB4ruO6n8cPCyBOoPwFShGh3sEnuURa2oNwNl0OwVvbAzy/xHXFiH coGRMgtbUG4Gy6Et7Gm9GtiTLGn2k3P7WJYKFLDh4RBOAjHzx3ugcJcTn/fRCiK69gaC/qR5YgNu oDUZZcGt8f8AwCEXS8cAXFqDcDTtBsOvOKLNsYtIpxprR7Y0gwefwvjwADZrz4E+AxponrrncK2+ n1Y9rY123taMhpVWqjj3IM+bELtzFk2PoKfjdx3ugfb+IQm9q8KnlhRlvtirr/AWIwuCuCBiNV8Q 2GrLfbFXX+gLGOmV/rAKv6goCz1ZH77DuXcQ0cLVZwvZB80VIl3bVI2RhumV/rAKv6gpQkye0mO3 SwW/MdHC1HcyvZBQ7trXsahrh8CY7265QB4s3xJJdnFflP0OxUxu+mQA0KuVYDXCqKReIIEz7XKf oPSCpGA6O2+IJRk/xAdg8pABVQC8oDhb5d7ZMR0CiBy7KKqr/aoFWAZzgZEyPhV+tFkp9wvJtGjR o0aNGjRo0MB4ZuCZIzDh70bXoxsOvlotFLuFG0e5Ny26qb1Ky0uJHuc5BQtwg3f/AJq1fMj9Y4yh 92qQg7S0HkpHvM4nR6qAWF1RjvQRy24g50J7fHaYg4sJ159JmY7Se6oT4xo0aNGjRo0aNBVGO9BH La4g9vtQZ/M20OokyAFCol/JCCuQPoOKmLcX9xvD4zql7B0rl4C78aaWrlbCoX9LBMSDUTxtHqmp n4+9S3JHDZlcsXnDooUAjwZD5n3qQJbqTDplf6wCr+oKN1lXEhRw0vg0wvtYDl5UNHqhIVzoeuVl Y4Yn+sAq/qClPLehKG6pQosBVgGc4GRMlqO7ar29jxYDzNMr/WAVf1BQvHegUVM1A4riLW1BuBsu hH/yIw+NmJPFvsN20rcUevtunb2CalhwqpE+Kl4iUp+6ePtZHsxGwI/tW7Ngqbk8RBIiJ95MqJ7t 8Irbw8U3TsEthOfOHxfq8nOcStAwo2gjN44giMH3BvW9HC1nLSvPMCpGomnk89f4E4sQ7loyJ0Sy WejFBTOSq6oq2FtqbNwE+QfsaoA+hRj7qR1qndzHRrMcmNoAWcz3oqgCyCbas+VfHhPmSvxZ3UTi KkTm41GCIi/SsqADUodt4YIq2FtKaNwE+Q6AoeJdbsLQcZlzu4MQ39kAWIlXfV3hdow76BIHlXNp 7f7EbyFpMsbIzp1eZEBD+plrCCuAUG4RsJBU4vA6g6SIb0jAiHbU9Yvxt3hT2jMYtbUG4Gy6Flcx Ov5Gb6xd+taKnwgFEj0wnF+T8HPRGwtbUG4Gy6HrF2Nu8KemZjrSRM6RgRDtqE7qJb+faDKxOOpu jdlsXUDLiGWYh3OBETIdQh5IpYzYYz8gSP7MQIgiNOsa1CuYdpD3JLxL42z8i0cT8EUz169evXr1 9DwyKxONBifR+nHXBX0PRtEhfsqI10I/BB9/DaOyhjt9cgAoVAqwOuFX0GgCc3SKu8ubAHvTKgHb QC3zcXlOyGLixhTCKsAznAyJk10qOZjH8/g4Ur169evXr17bfnIOIRAIGnXqMQmnBERCBz5w0mf3 nC+Gi27g6xZiqo/m32eK3pJYg4xB1WoxYWt70WkOu93VdtqzBN/na/35zU2VDN8EL169evXFqoUZ MufH3B/oo6PTV0oYKvc47xH28t0oPXrbozpKKGwokRO3tzAMcz/BGT169evWKRlhcWlS9MimQ65n K1VVVVbV2q9q+1yxdaBW6sa0XbqC9c+AKK9nK6ZX+sAq/qChBZjvhBi8MwCVZkIoIdAUSRMv3X5a MoyvgOhh3hlaqIFL4QH9vWxyKdZHczBt334k2p2Ur/FCv8SsPcl4KtIh/wCURuDr0eF3dMr/AFgF X9QU7P8Anq7r0jUpEQbM40KRmKJV3TK/1gFX9QUoRrQ4gzER4YayZks1vdUhn9hjs92PnmS6NxlJ BgNgh1IwCbnAVe1gGuFQU6HNszBnWlL9hYZCFcokXMliTZ7KI7dbBd0yv9YBV/UFH7ZD0Ux2QXDo GpSWE9bgr2cAnmyLoJwoBEX/AHGHo+CNDgcQyEK5RIuZE9xV71GvFXdAkRF7ChtcGy0XGK1sQInE cQFzwlIt65O5qIwBJ+QJh7hxUUgHLwFIzDpq3db+aQEYXAglFMP+S+uomgXO7DH41/H8PV5AR4yN egp2WyVhBXCCa14lIIu3PkpVJwcV32Lzfl8XSo2KgwKnhKjfkwGp9oAoNLXAKAWDRvHqi1cFIylA H/WjYF3fV2hdueHfQLW1BuBsuh73fjZtClsRry9LG3ojAiHbQK+LZjtNB+b1kHnYFW91wq+jIGJD Z1sR15UJFedt2weAUqgXIed6ffvfairAM5wMiZEqVUZ7y9HL+Cc7uMUfhW6OQcWIdygZEyP7nCaZ drNKki7rwtbaFbYjX4xa2oNwNl0CNN1UDY7Db4QU51wn+ATaZHYf+it6NiF+5FZw7pmRnAh3pInp phIgmFIBrai3I2MXX18BeZG9MhhxceIt6NO8CUZkI4OXOqQOos7ujBhedqjqT7GEBA05jJj1vtk2 eyb0rGKySKivNSsPPVbR/hrZ50KN7TiORD4foe9kqjOgCHqXW/A0eT0bbzQqKfgFyEGVHqgqahLO +v2vqn5XQ3RVrRsrMt9oVFfwC5iUnb6s6tbGNge1o4DHsMlzS1bY/wDhp3xyeC6SvA15p8/Ic94j xdfgesGPWRMObuMSpQTlUDdMr/WAVf1BRIqSVvFbDV+Epj1A56pzafRW5KyT/YCclgBDQMnWIBOi ip9GRSGpk407Nt5oVFPwC5COShlQzfeJvTt0ZhW97mdvJp0yv9YBV/UFHh7KWV4n+ieQXFX5akdH /JjVbD7jmizbGLSKJO7uxcVP+o64sQ7lAyJkJkPO/Pv3vtfW9HC1jDSvNkoFbv7Fxn+I7QK1f2Di P8R2x+6xuA2MeUfiOjhazuFebJpcFGq6F7QKacJ//FQ66+GTSPGrRap4RwXgpw9p8Xrjsm+94VdN Mr/WAVf1BSxwklis/TxJAI/FqTFvoG7RJbCp9FYa0BrCBLWVhISVE9ReU7AInByRkueguT4aODHF EqKRNWMj95/XkIPDM75AGmV/rAKv6gp+nkRysGre64VfSGrkadgEPBzwnxRU+5RBT9hbF7aaTTSM SSuuiP08u6JDTWQxG67It+3uYEbBo9UsexIARNK0eqOw+5sfildSLhw1f9YBrtUFMVXY8baslWcF NcMQNt1XsQAJWeHwRenAQDXwr1KUOYFvDdtkIew7rzj89uz+P7XyErtIqwDOcDImShulUHA0rM6L 3VPh/ADnfAeGeLqqoDiIL3fR29rUO7DZgFyH/s+aU4RnZA1BX5F4ISrKUE/oAC0KAG1dBIb+K6i6 A4qC9ftlPZTHZBcOqqrtVV/b3CZU8IwPqmvUUqH6YE+iJUT0hJoHikUONeM0bOYaTE2QGgkDlglI LV17ANFejkwjTdVAXOy3+EtMtYSHx4FrCeAWlQKzGE4LFuDQuKhW5omjRgnBCeiMOGQr3ipRn4hk 8ixq83q+MGbBtwDRuuQDYNF27EdSk9EsW5aVVr0RVQgCsgG3GshXS6F6p/k8dL1t+o4/A+Vf+tKM /ru5hf8AiVh7kP4SrSK3/fiTanZSvgOmV/rAKv6goBiMjhPM5W9AV24Ce5PSPnLYdm8qJJYyAaYg L++s8d1dZYmRXbwt6k5B+csjqVlpH24K+mG35ZNdB9bd9AE30ItwgnHYu6ZX+sAq/qCiZUkreK2G r4UN5mY8r1FIw3Xn0/DYKapfjkcMT/WAQ/1BTFVvHOWjKJnJEnEXNKH7ZLF0wv8AWAVf1BQaVzon gT73igF76q3I2IXdML/WAVf1BRDTkgnyTU80xBhif6wCr+oKF22Bu47VBj1hOP8AdhPgTsyGNjKm +kmQM1itBRwvlHi9kTNcoaU8SoIo8Do7wOQc89gszQAw7DjaKg3VvQRI+vTu9w9UA3DF77Mb/wAg OX6IIWDJ37FdBEj69O72eqAZfoEhcMlcsdtElsKn0VhLQFeMenCa10h8WhxiMWCCSwU3JRr+L4er yCmCJfn9mWO8MDvLgk/5LJwnvUZ/VwyU447TrIo+UwpLB0h+pj0B1ppWeXLIMUGNaMNAPd29XIfV NMr/AFgFX9QUG/sz/SToWESQtbUG4Gy6AkO9scXBCC5H2Axl3oKGpv1k78Gjo+SYIVKqI95Ojl/B FWAZzgZEyXBIHIjwsuLMkWOc7Ksg8B4VB8pRNygOn6/lE5K1e/lYEDXzXW4HzTtfO4ymDf7d2YYg +wLplf6wCr+oKeIVYBnOBkTJ7lqqZp7bne/AbdQGoyy4Nba/+AYi6XnwdMF6+fo8ENaMI36MNR0l QYf+is6NiF72qwgW1dwtFsYLW1BuBsugMH4JanBaZjji6uYkx4S1RGQx/m/Bz0RsOfdOd8LGCteO Z/3WHC/FZGLzE9sGzp+SYKUKgteVSI+HjBxxx08m0SoYip8SgrZfI5O1o8e7IjjmXLgzLWPtRl71 9dVh5a1FHX7KDdVV6zfuEMru+VaOujhgj+KBMrB3SxycP6cRuT3Txa0YR1J2+vPtbuNhe1owinLd PGWX+i7Gb8jFWKq6NhBGM+A58ohCUTo2/J1nH3jLlE+LQUcLdR4vZNLkqRWu7UDZEW4sQ7lAyJkU Mz/UxmnJS8KjKM/08Q0r+pH7yIw+NmJdMr/WAVf1BRvXVlgYgRiDAgPPVW5GxC6+vQLzPBrTIZc/ 4ZyYWVR1XwX4io4Wo7hXniGFusXCSYWAu5BeoyCGBQBwADLQtAztxn5RxHJZiHc4ERMiw9vbK8T/ AEbyAwxP9YBV/UFMbNL/AFgGX1QU4aNGjQSbX6sAq/qCkyTmyOKGb9CUIdAhRZaNGrQadWzTtknO SxW1w7Kehcs7dGjRo0OHx6rgwq/4lhqETRD0MbwBPiXgsaQzBaIzYpEo5x8XL3iI/cykpIHcMepU +OSQvhAC9WCxNMgoU1iNxwxyf21b0/CDwUPu1aHgO0tB5OlAkFRoYFGJXEGwitt8ukbeERRKTSPY /hwGABD6AhscXxvcfaD9QIyGQOmV/rAKv6goCGc3b/ZCXnMH3OE0ibWSQJBt1YajLLg3kr/sGIut ubwCnTlCrhqDfSsn+IDsXgIICII3gft1Robb43Shqs7a3vldsbIE0yv9YBV/UFD8R2ckV2RS37YL E0wCBQKIyFb3rz96CaAoLMoURLLaV+ffDvjevXr169evRKYJuYE4hS39kf7y9igiSNMr/WAVf1BT eDTWL9dsKV7hip9yiSz7C2L26EzCBLkW9UW4dNL6WA7eVHRvg2PYBo4nVMSd6f0pCwEvkqqyWObm BOIU9evXr169aLEef51pj+wR642PHDrfBsewDRxOqY00vpYDt5UdHQmZQJci3qi3iUBVAC1dAHav oMAPdYOE8woAdjBRwtVnK/EDvTs8qHHlDsnR+eqaDvn5cOcAOOOOOOY+pksaW7bUEVZS+Ngu3hQ0 gkgxFVzIjUKLJFR3mJUknqp6+1sezEfAjH7iIx2FmBuKvy1q7P8AkxqstEoF/k4okIt/ojteiEmG ReBSIfDqHtROox5oZDz+KYguls/ov/cvLk5hjWqT5hiRWXly4ihxHzqOOOOOPbe3tmlaOE8Rnb3d 4Brg2e0SDwtXmKnYw4REoO9IQJi9xQlDD+19U/I6m6KmtG+IBER5pZhbG4YVMP6nGoiFcAsJBEWD hD9TXoEq7qu8LtGHfR2Qw9CyfQirXlhl5xTRtjFpAtbUG4Gi6B/DXDNwAL1An1i/mXeFPTMzlj91 zURNjEhAtbUG4Gi6H8L48BQ2a8+CnWmtHtgaTB5QK3f2Ljx/4jrixDuUDImQWtqDcDRdAsMuOabN sYtIBE5eNNbsp+UOL8O4eMidryV/2DEHXzNABt1YajLLgsnRFDFSPHWsYXXwHOcDImTRo0aNGjRo 0L4eDVvNcKvo/ibo+hM6Y+Zi9t8PrN1xZBZfPirWK0ZX9YUr/wAI/kvnwjISU3BxLMQ7nAiJkdF6 p6whYZEPgdd/DPaaYfasq1s7fmEM4HbSbqvTHQn4WFX5B9SCSEh+w13Ot1K8iANS8Voe7JMOGEGE 52EDGK3I2KByt3i0aNGjRo0aNGhzrdarIwHwPFo52Gnd/GQeg4uGXHv0ruHGF6Adw8KtEeLS9S+E yi68OT8UwFXtYBrhUFEXlLD0iWPl3g6ZX+sAq/qCnwh4e7Dj6Bdm4yBS6I1GGfBfqEY38c9FUg/A HHHHHHHHHHOLwjygbpmilM5570DjqKIw36hv/jghzX+FyV85KP8AjqSCx/6sv/xkPB6s3ptK30ej nuFSFBujcoR326SmoYbWDmo9zupuk4S7/DLtzz9LvOh5yR3Sn8896BxlsGc4GRMg44444444446G ZHkMZ6k/vwEaB6FZueVAMQoQcFF8Q+kn1B2QwW236EPaGMrVyFXvYBrhUFKVX/WUAdQgRcAYjI4T zOVvQPtSAVx2qDF7Dhif6wCH+oKFAiwZGxIViIxTL9CiLpkLljDi3YsDYmYglY+k/cdAIPn5GwOO 90D0iqnMQEXouTQVnhYUEa5kUuS8/AdcCrCbrn6d3DjjfFOrNFQ6ry1EThg11Oym5cF8e7PzzJdm 4ymZLNT61IZfYZplf6wCr+oKOtk29MAZkO2EK2WDsC3Vh6tU+aV4o1rAg7akbZ/eFdgD5Y73Qfz8 1+ggwdDMZ0yv9YBV/UFHTI/1gFX9QUUzUUXbZistxcKkVFeYvZS+o9r7ZNnsm5Ixi0VoCjLqKYyI S1kr4H2OFXlFwCN2DBUfJMHXOUbIFBl2oXBIwBYwIR3SVEy4bKFVY2YkcFLoBW9ZNsVK0NXm9Xxg zYNuLTP5BIT9tAh8ye6Nths7U+usbaAr+CbUJQ5watRmFL3uZ39kt+RyrBVdWggj0ox0E9de4Yfs PWsHT4QBnA7aVNL8Jn4OfCNh9fAXmRvTIYcHnqrcjYheoJs9BMdutgsaZX+sAq/qCjplf6wCr+oK IJRxNl7wtzKCNOPl3NKH7ZLF7oa784v07HFRFNm9eWZxp3ERXXZ6BWVnXCjxkwqwDOcDImSvhuQl DdQoUeCnquq6NW4QFwrenC5/De7rsSD9SKSGgcw131nUNiy9Jg3jwrZYOwLdWDzhJtVJMOvJMaa5 P+mAtzqynx7WrnMmFtZ4mZplf6wCr+oKcRxSKPHvGLMHMIiiUmkex/DmgN4v0FobAgw0U79l+lZq QXJDKvU5PAVfrGIXTK/1gFX9QU3YdtT1yunNsgUTj7C81/QMcxY3g01i/XbKle4Q66uwkp3Qsi9u mR2fUpFycKw6YX2sBy8qGjdfUZ5ANHEypg/eRGKwswPQkpxrutlsIcy57AXcdaox6g4Yn+sAq/qC hhtXiInYwgIlAs7plh1nUXVd9SAhsLt2cM4eIN8U6s0VjqvLXpOoesAnGTD4Fh9xzRfVbYxaQLW1 BuBouhbW/CP5i58IyrWip+YQR9cHTSkpxx2nWRR429posL4FGcLxJWeo2+wOZzDUw1f9YBrtUFPq wm3ONCSMxBK+IZSopCHgDyz61/g/fyH/2gAMAwEAAgADAAAAEAAAAAAAAAAAKAAAAAAAAAAAAAAA AAAAAABRQAAAAAAAAAAAAAAAAAAAAAAIAAAAAAAAAAAAAAAAAAAAKBaAAAAAAAAAAAAAAAAAAABR aAQAAAAAAAAAAAAAAAAAABBBBaAAAAAAAAAAAAAAAAAABTACKAABAAAAAAAAAAAAJAAIAJQBQALA AAAAAAAAAABBRRARABRAKBAAAAAAAAAAABBRJRIQCKABLAAAAAAAAAAABBJQAIBQaQDBAAAAAAAA AAABAAIDabQBRABAAAAAAAAAAABAARARABIJQBAAAAAAKAAAAAAAAADCKAAAAAAAAAIABJJJJJDJ AIAAAZQZJJJJKIAAAAAAABBBRRQQRBAAAAADQAaCIAA+BRILAKKAAP4AARQQAAAIAAAAAIIKLQAA AAAJLQAABRIQZJJJBKYQQLJJJKKKCAAABQBQJJIQBJKAJJJQRBQAAAAIAKIKAAAAAAAAAAABRAQA AABbAIBKAAAABQAKAIACKAAAAAARQQQBAAABTCCQZAYaAAAACAYATSDAQAACCAAAAARQAACBKIAK AAAAAAASQRADIRKABSKABIQAAQAAAAAAALALIQCAQJRRRQIAQAAAAAKKLQKCBQAIRCIKCIIAAAAA QAAAIJRKQABCQMQCLQaAAACIRAACALQAAABBRRRBABAAADaTCCKDAAAAACCaTabRSYABAAKIAACK AAAAAIIKKAAAAAAAAABCKBCQAAALRAQJJJABJKBZJJRQAQAAAAABRAAABQJRRICAAAJCICAAAKAB JJJIAIABQLJJJCAKAAADIKAAARoAYaKKCKKAAARRQBAAAAAABBABBbabSCAAABbKCBZJJJIKZSIY RAYAZJJJJKAKAAAAAAAAACLCAAAAAAAAALIAAAAAQRAABAIAAADQAAAAAQAAAABAAJYBZRBRABAA AAAAAAAAABALAIKLKBBaBAAAAAAAAAAABAACJaACKIRBAAAAAAAAAAABAIRABBKTAKRAAAAAAAAA AABBQAAIBQRQBTAAAAAAAAAAAAAAALCAKIAABAAAAAAAAAAAAAAABBAIKAAAAAAAAAAAAAAAAAAB CQRQAAAAAAAAAAAAAAAAAAAIKDQAAAAAAAAAAAAAAAAAAABAKAAAAAAAAAAAAAAAAAAAABQYAAAA AAAAAAAAAAAAAAAAAJAAAAAAAAAAAAAAAAAAAAAAAAAAAAAAAAAAP//EACoRAQAABAUEAgMAAwEA AAAAAAERITFBAFFhcYEQkdHwscGh4fEgMEBQ/9oACAEDAQE/EP8AmnlsSEybz8QgzxGjtqWy2dY/ +ZAi1XY7VpKkY4pTE8JsxqXPu7KBX/zK5Vm/RwV1j1plJj7NIRlpDX/ypo0m3bdq/i/SMCqMXbJl fuQ1wIBKJH3UvriNF6jr7LFK/wDkAqBVYG7giHLm5+2gYAKoehy4VStXE2O8UrW5tVtONY9IKCjJ 3z52tFm/+Rd7fZ1yOekVgoV/bSlpxjboMGJUmYhT30b57mkMACNH38YRSNRh7o2/7/qv+aAL/gu8 YAAAgFDESb0N3vSs6whitcQWhSboZ9JY0kdGz7nG3SKQVJO2fHw6f5+9q/8ARW3fJgmczK364lph CAT44aPH+MEirR6zrtDpsxI88/EOkOJJij6rVsyxGi1R0fU4jDpXKyP06xhPWOmK1xGi1R0fU4jD /GeSNa8FuYViRwwkal2WfFCUbf8ARX3fJ0QEEie+xxe7306ZPfCIwRHJk9NmJtaZbu+bbpJFRpIv 3oczl0q1Cb45+I5dIxCpM+yizLXYdIU2omns8VpimViTXM5tr1oJLNkX70hKML4mkIub9FCdLmfT 3GT/ANFfd8nSYxEFrzIyzllS/QWA2bm3sMzE4iH5J5X3NYhiTXZu+XHlvhQFaBF2MIi8GRY9vPFa YgRdm75XpTK9+s0KTbN+9fxbpFFVJm2XG94EjouSZyoNyMZZlCcCmCJzOVtMo8ynCF8UphQmsDNw IIjEf5fHuMn/AKK+75OksCVPgwxKYzvplHmc4xtgBFRPalTrZ7/Q0zeOkVioU3/Vd4Qp0jAM4xGl jSPfhwgCUffxgmXDk5+2iYRFGowdzAqEqMfdG+EASienHWOBNpQ3fEaQYYqjxY45qz1x8z5Y9xk/ 9Ffd8nT4nw6SgkVhL70u2x+fdMAit+WxzhVK1cAoCqw90L4AAoYBFY/NjllhVK1WPuhbE2O8U3uc 1759KJ2+j9PHSbHRmaNU5rlLN6SBFsQ1z0slIwr1+Z8se4yf+ivu+Tp8T4dIJGTbss+fjR6RWChX 1lS041l0giibTbPnahKT0isFCv7aUtOMbdKUxCG9Hcr5NMIIjRIOzhmXDmZ+3iYpTEIb0dyvk0wg iMxk4RFb8lnnp8z5Y9xk/wC2WNZOLPFPmv8AyRJvQ3e9KzrCHQUUCMCPB87E+ksapOjZ+mmbT/lY IoUAUlnKFa/i2GJ7mZf9awwIglEibOPz7rjT7DzjT7DzjT7DzjT7DzjT7DzjT7DzjT7DzjT7DzjT 7DzjT7DzjT7DzgYglwe/TTXB9uNPsPOBiDMiRg1N9elGoSPt54lCPSuVZv0cFdY4plJj7NIRlpDX pXKyP06xhPWOnQoYjOkIWrcxp9h5xGYRiWawzqy9bdCYJMRiBD8pPyY0+w840+w840+w840+w840 +w840+w840+w840+w840+w840+w84KOAyrGF6XekEgq1/bWl5Rjbrd7/AGNcznpFQUq+XepPO3+q uUJv0ctdI9IECtW3e9Mkj0mii1m27VeJT6SRUaSL96HM5dJopNu2OKvEa9I0XqOp6nMYYpXDE2o7 X5y10xWmDhXqOT4b4pXDE9zMv+tYYEQSiRNnFGqTPHPzDL/VWmIUXqur6HEYYUCtAj7q21wiK7+L HBLqKIkkmYABc/NzhlgEV/w2eMIiiQSp0ABX2Nytv8czMhzdsQ5uxgzAzjFq/wAOiimJ28Y1+48Y AwN51cKArQIuxhErwZFjj94BUCqwN3BEOXNz9tA6wWCjXf8AfyMa9IpEzLssuN6MpHRSMxawhBc6 M8/ONfuPGAECoUjC+wdEFikWLcjiHN2Me0P3/jmZhTkZEZQgtr2g89IrFQpv+vlIU6RZbTd8uKtZ wpD/ABgxKUb2703h0s9vo65PHSDEpRvbvTeH+xlCpOGcLa6aw6Xep9n675dJIXRj6t8xjTEKe+jf Pc0hhAI0SHupbXCKRqMPdG2GSjCpfrmm0a0/2Rp7atst3SOFiq1ZuAUBVYe6F8AAFD384jT21bZb ukcLFVqzf8t2JNK57O1YlsIIjRIOzhmXDmZ+3idIM3JO+dq1ytbo3EipNS3OeumP7jzj+484/uPO P7jzj+484/uPOP7jzhQqaTFiqRnHb4aS6SgIE20N1q2rAwAABAKGIk3obvelZ1hDFa4ljSR0bPuc bdIpBUk7Z8fDpirVZvjj5jnhQFaBF2MIVFBoCgHfvrj+484/uPOP7jzj+484/uPOP7jzj+484MxL GkVYBSuddSHSWFJN279cRK9IIqrI2z5+DXpLCkhq3fco3/z2Zk1pnubZl+kkV/Iv2r3hXpVqMn6e OZRh0nhWbcueNZSi9f7jxj+48Y/uPGP7jxj+48YSEiGr2eBiDMiRg1N9escoEiTy5T+IY/uPGP7j xhKIESTESOTOsq6x6pAhGagt5EeIvGuP7jxj+48Y/uPGP7jxj+48YRKibifPSBFibtlatM726Uyr I+3g/MOkKLVXQ9DmMMUpimVkPt0hGWsNf9MWJWja3am0OkYhRmfZQJNrEOk0VGky3ajxOfSmUZmm Zx8MOksayOpZ9yjf/l2YkVpnu7ZFulUqzfo4PzHFK4jTahsex6VyszpkcX1xSuI02oGns/8ASgCz +LnJLAiCMRo4iRepudq0nSMcUrhiHJmZe3g4EQSiRNnEaL1NG370xSuIU99S+W5rDAxIlGZhkKEU GWen+GZhGBEgwmVg5RwoCtAi7GNP5fp/xzMw2kINScY52KS9OiMqG8YTyo+7dcxnCQCKxjtaruXy 6QUFavl3oSzv0niiOW3a/GfSCQVa7fv4GNek8SIrktj7uSg16QQFWbtlzvaDJ/13e/2NMznpBYCT ZnnztUnN6MjZBDmMekFgJMnfPk+JzekmOpM1KpxXOeR0kii1k371OZS6RYlPybdqvHSz3+QfbxOv +QqEqMfdG+BAJRI+6l9cRo7aNs9nSOERRqMHcxWmIMXZu+XFPzfCgK0COESvBkWOP3gFQKrA3cAQ OXNu9EqWSrJtpxTAKgVWBu4AA5c277aWFArQI+6ttcKpWqx90Lf6qCSzZH74GF8Tmrm/mBb5nCPQ ARo+/jChKsYSnGNIb98QovV1b/rToAI3IfviuApGp7+cCoSox90b4AAo+pw4Jjs5Nv3pHEVCcYQ1 K/2l8AAt+W7zgArwZtjn94VVWazf84KqjM3y5+TXpNhvAd7PNO2eIrFQp+mlbThC/Sz3+hrm8dKi 2PtpsCOfWCwUa/prW84xtiq9vs/Rz0QREiNTF7vfTpk98IjBEcmT/migIvvGCJwLKxP88kKycUpi lcCARg8I7VhrnpPpBBcCe7ETnQ6eTjTJ/GsodIpBUIJpGvEZ6bdILFRp+2tLzhC/SGO+EP3vCUrR z6SRT8m/ahzZ/wBFKYhTeiano8wjhAI0SHupbXAAFD1eXBMuDNy9tFwqqtVi7uEQHN4F3jAAAUCB sYJnsZtv3pHBEOTJy9tBwAVRwAAFAgbGCZTyIwi+z2xQWeTJ/fCwv0qhzc55oy0xHEn+Qan2ZRYf 4VphmagZFebFs8mDgAQADT2brXpLCbIobv1XOGKqyyKHH3XpVqknzz8xy6EzehvbjPziLGMZ1jeO eIE3JO+dq1ytbFa49j5Yh0/Ly67syKVz2NqwL/6q9VJ+niM9IyjDrQEYap8Jj2PliKQQju/K9JIp Ju3eKHMK4mii1k270eJy6ywpIa5vuXRiUxnc88z1cAERH25U56a4zPzElGOddbYVmSzKd89K8dEU Tbcy/Fp4lEC/DzbZ0gvRBEaJB2cNWfV9PnuuERgiOTJ6JEawPFuWL+Lx6TwrMalz3KF+k4azcW+3 mfSBXuHnH8x56pEKxPF+SB+bw/1Qo76F89jWGKdFCqG6Hzj+Y84EaI7MfjpFizM2yvSmd74gxYm7 ZWrTO9usaLVFyfYcdKCSzZH74GF8FOTaL9Q4316ARQfPBV4w0RIJBjVzzA/Otv8ACU1Mn6bfGmKC zyZP74WF+lVJ5lTn6pgcExqc4ZQ1pEdcjp773Ol7epXRlwEJV6SwrJsXfGs5welcoTfo5a6R6RIw iRhGF4Zwy6bMzK0y3N8m/wDpnjWZ0LHucLYpXFaYo1SZ9nPE4R6bMya0z3Nsy/SjVJn2c8ThHFWq zfo45nGGKV6Uain2c/ORHBE5nIpzn+DOOKUxSuCpO5qGwzb1hPMwqoqrr7I0p/lSmGJRDO555Y1m 4AIjE97dKVwjDtQcsnecd3AgEokfdS+vRYCtCbhmbUNrc566YrTEKL1XV9DiMMKAqwCrgRrtNKQl kQnCoMMCIJMZmIsQmTPHNMr2/wBFcpAtJtjZnGVoX6QSCrX9taXlGNsSY7RSlLm9W96Q6RUFKvl3 qTzt0goq0fDtRllfrJhvBaUsb0bWrHEFFWj4dqMsr9ZYTZFDd+q5wwrNlkU7Z614/wBSMyASdY24 q8S6QQFWbtlzvaDJ6NhFQSG84/Xq9IICrN2sc72yekVioU3/AFXeEKdLPR+h99sulV7/AGPs56QI FKt+165rH/KtMQovVdfZYUCtAj7q21wiVV9DgwKIlRjgAFz83OGWACPDk2eP1hEUajB3MIhOTMuc /vAiCTGZ0Sq6LHfLimEAW/Jc5wIgjEaOIwDBSvnRo4pX/UCoFVgbuAAOXNu+2lgEVj82OWWFUrVY +6FsAoCr7/cAAsfm7yzwoFaBH3VtrhVK1WPuhbAKAqsPdC+AAKGGMGE2DDe2FlWZYs6nnHsfLASJ MMSdRzgihEg3Kw5MAiufmzwzxvOT7cex8sex8sex8sex8sOMClCTPOTa3e3QwgSqzCLYnClcmOmP Y+WPY+WGkE2owe97yyt0onb6P08dKr3+x9nPSbDeA1rZ2oWnCsekFjZPY3Oa1hEzekFgJNd8+dqk 5v8AqrPY+2nAjmdIrBQr+2lLTjG3S71Ps/XfPpFYKDOk39TN4yl0gkVWRtnzbTR/5EERokHZwiKc L5nv5wKIlRibmCJNkyb/AK0wgEaJD3UtrhEVn8WeSeKUxCm9EyT2OABGj7+MIlVP9CIDlyLvH6wA AEgkYizdkb53pXK1+jEd3Iv+tYYAACgQNjEab0DV9XiEcVr0gUOx840+x840+x840+x840+x84i0 Ox84IwIwjCcKRvDTq+IaJMy1zZ1jjT7HzjT7HzhgQEaQiStXOu0OsFQEZTjGPctTZxp9j5xp9j5x p9j5xp9j5xp9j5w8MQIZHzFaW3ek8UUNmz9P66RSCtW36rtHpXKQDSTZ2JxneNukUgqE6zP1N2jO X+iaK/gW71eLnSjUJHnn4hl0mis2xY5q8Rp0plJD7dYwlpDX/RMXaRu1eCVIT06Q0sfLiOaVadJ4 HyJc+75FekKLVXQ9DmMMUpiHlVkaZvEu94YIE5Mm57bAIr/hs8YRSNRh7o2/0V6pJ+nn5HpEizM2 yvSmd79K5WAazLO7OM6kb4rXEaLVHR9TiMP8qtQm/RzxKMOkkVGki/ehzOXSqUJv0cv4j1/mPGP5 jxj+Y8Y/mPGP5jxj+Y8Y/mPGP5jxgAIABkSMEzehvbjPzitcRIlaNu9qZBDpTKTH2aQjLSGuK5Vm 6ZHHyuFgK0JuGZtQ2tznrpiaKLWTbvR4nLooxUc0Fx/MeMfzHjH8x4x/MeMfzHjH8x4x/MeMAFAN gPjpTKkz7OT8w6MTajtfnLXTAxIlGZimVJmuZz8h/lBi7N3yvSmV74UBWgRdjCJXgyLHH76Cipmy a5UtT83x7Dwx7Dwx7Dwx7Dwx7Dwx7DwwIBGI36QK9w84/mPOBEiImZMwAR4cmzx+sIiiQSphAFn8 XOSWBAJRI+6l9cIgiRgibnu3SCQs3sLHNaxgZPSKqoSN8+Pl06IVBuh84/mPOBGiOzH46KoLBygv wY9h4Y9h4Y9h4Y9h4Y9h4Y9h4YiJURnRIN6515h0ikbM7i5xWsYOR0mhSbm5zX4p/hFYqUb/AKrv DpSO79FeUTJ/1QWKjT9taXnCF+lnt9HTJ46Xer9j7759LPb6OuTx0mx3ila3NqtpxrHoAVQ9Dlwq larH3QtgKAq+/jAAAoexdW+ACqGFUrVY+6FsAoCqw90L4ABY/N3lngmXBm5e2i4VVWqxd3/SKhKj H3RvgACj6nDgmOzk2/ekcIijUYO50BQFVh7oXwAC35bvOGMGFbRpHXCqqxLFm1cNfufGNfufGNfu fGNfufGNfufGNfufGNfufGNfufGNfufGNfufGCMCNYThnnQ+MIIjMZOMp/Lw4BRGIYk2pgRgRrAj Ckb4QRGiQdnEaO2pbLZ1jgURKjE3MQpvR0b/AK0xFYKDOk39TN4yl0gkVUlWR+5O0Jz6QUEAmxWb azTecaSxr9z4xFrAtCFs2cJtNt+kHBAM1m6ySVuc8a/c+Ma/c+Ma/c+Ma/c+Ma/c+Ma/c+Ma/c+M a/c+Ma/c+Ma/c+MRUURmQWTexXeUKT6We30dMnjpJjvEKUu71LXrH/knhX8i5xU5CvR44Tidmzxl fFa4gRarseacxxSn/GgEaOERWfxZ5J4DAJAgSKHGPYeGPYeGPYeGPYeGPYeGPYeGPYeGPYeGPYeG PYeGHAokTQJxMjolBgELGQ3Mew8MQ7GpXWNH8T9OkhSMyR2pb4hnj2HhiHnUk65PM+1o9IxCjM+y gSbWIda5Vm/RwV1j0QsUChIY6zL/AIx7DwxKRRWbIIRoUKX1j0QsUChIY6zL/jHsPDCRVisflLYS IVEm4Y9h4Y9h4Y9h4Y9h4Y9h4Y9h4Y9h4Y9h4Y9h4Y9h4Y9h4YWrB3T5P9lfd8nT4nw6Qp76l8tz WGK0xEi9Tc805j0hD31Lnt8VpiNF6jqepzGGKVxPE+BbH3fJr0goK1fLvQlnfpPE+BbH3fJr0kBW I4K94nEevzPlj3GT/wBFfd8nT4nwxRSV1p57DaONcZv4gThDOutusCBSrfteuax6SY7RSlLm9W96 Q6SyXBCRN5+YxZ4Iju5t/wBaQwoCrAKuERXfxY4JYrTEKL3c19hsdEBBBNfZOtcNWfRZ8MjvlVjh EkkHJx8z5Y9xk/8ARX3fJ0UcyMIFiAVzptmOKUxSuCJCLm04u3yzImAAnJk3OP3gEV/w2eMIiiQS pgVCVGPujfEAF/4/nrNhtBd7HFe2XSKqJFN8+NqspnSWAMPyy45rpiis8mvu3SqHNznmjLTEAijC M91fvHuMn/or7vk6ywmyGRO7Z0gucMKzZZFO2eteOkVFSj4d6MsrdLPQ+j9dsukGJSje3em8Okae 2rbLd0jhVVarF3cIgVcAACgQ91b64jT21bZbukcVrilMMSmMyvOf4c44AIiPtypz09xk/wDRX3fJ gWbPIr2y1pziWEmQzd25pAM4/wCO7Enzz8xwgiNEg7OI0dtS2WzrHpuxJ88/McSwYimS3fq5KJXp BFVZG2fPwa9JYUkNW77lG/8AgKoijp7M0pgmUrmU5y/PGELDEqGz/wBCRQkpCNwiU1l64rX/ACgz Zk7Z3pXO1+k8D5Eufd8ivSIQYRIPncs26QotVdD0OYwxSmKZWIKyLu5KE6sbf5gCDJES05Uz1r/4 ESJWjbvamQQ6Uykx9mkIy0hr1rlWbpkcfK4pXDM2obW5z10/8dAFn8XOSWBAJR9/uI0XqOp6nMYY pXE8aTc2OK/NekEgZtmWXO9Ccn/yZsd4pWtzaracax6SwuhCRo7/ADFWeIUd9W+WxpDABVDCqVqs fdC3/kjBiVJmIU99G+e5pDrFYKDOk39TN4yl/wCXLF+AbP1bNp0iTehu+K8Q/wDNrlZH6dYwnrHT EYhQkfbVJt7kP/N9Tb/o/8QAKREAAAMFBgcBAAAAAAAAAAAAARHwIVFxgNEAQWBhkcEQIDBwgbHx QP/aAAgBAgEBPxCVRJQ5ElCRZJQx624Q0PcLNeGg1/IJ3F5A9ws14aDWVd6bn4LtxHdVc2Uk46DT ppLLiZfBH1Yz+CHvC6r3pVZ3v//EACcQAQACAQQDAAIBBQEAAAAAAAEQEQAgITAxQEFQUWHwYIGR scHR/9oACAEBAAE/EPGW/kuyndiMfBCs3J9tFuVyJfliHpbA5QIVYnFHHgekv0ED4AK39XujCn/M DFnZkP6J5ezYW2y/Mm84rOjcpYMwVBeYKNNWcrKIF6Tkvu8XLO7e3XfZqNgGFxDdHsLPDfKsQ48D 0l+ggfAD/wCK01UC/cHPM3kSqFCYpE19OfOVCI1doIBdrb3A5m2wA4q1r0avkw2eaex7Tb0zPyvW BpKO0RHPJmJgS2LEjL/tE5+j5u9h3skBPaCEn7HdXH973uy41e1pRcVhezOre3XfRqNgGHxQqID1 IB0sQCGhht33AYdxCtlZhPDMw4sF+j5ttRSCAKOCV60f/wDAvnv+AcwUxy9g+G8ifDYRJLBGv47Z 8EGPxGOP3kssdLHZfvVJMfDDJkAKAEKREERESzFABBubGA8cplqAZcVp2gCQkMv6YL57vXRdr3aa PILo1qAVWSY7cDN0OokFIrhR2qIRMr7vf2sb/dM88eB6S/QQPgAydFdX0qZftsQtSQahfPvMAVNW TQUDMkez/im0E2seR+B0VNlFR1ReJf8A+ai3Y6PfALBgirnmVrQsSGCx4P7rPnoL4rN6VumYnVoK klIRgw330SraM/ak9MMmkHD30PT3qCB8APZz/wDYYpIOAlSUF7ZDFvfcm8omIQeAR86DkN38jbFf a7a6U1rNM1JzQBoGPAOSDyyiAj3KPpS3m74daGkT35CE/wDpQ6eZVBdSlTVNrZG8pm/O/wB9evno +AN33r8X9Cp45FVv0OW48FD4i5t5g9C+tK9CX8mol1Ud8H+RfLH1mznuKFLoUV6iej4AQ+iU1JMk PY+CD7z7Xv3fw9GGhAPnvgA8YZwl5/8AjcgsiBXJgh3I6veUSBAFFAIwAAibImxPB0/TUQYj8ndP d4PVd29uu+zUbAMFKFihhnKEEu/f/wAfpqAN+o7t7dd9Go2AYWP+xktbcUx9xQx3jEvgxKTB9mUc d45xFKSE80rd/K7NWDHQPx3iiGbMbwp/W11vvVS/i91MhZgh0CYtHf8AfVLyGzIXtd9gIzWYZ161 Vwfx8S7DuWKt1O8mQMAGgXTwd9vR9uIj/oxkdgzSpO1DNrbgU4ROwcWcxuSRDVKrobFig/zxipT8 APZHyt38onUW2KCXGq5IQisB0BccyyDE9kI+3jgGcXtiKwHAXGNtjOY8D0l+ggfAAoPMuTGazDc0 rIHdn/KLjRYqDKKJMm1sRBGkMeB6S/QQPgAmele1Q7jKy+T4gZtTxsGKLFRTjfQfGg3gWSKFbkx3 4Ro1C/E+zNaoUpPIIDi45WrRj/wD578AIzLeenUTDOIF63kBdLbyHf8AiU8uMqjBQBwIIrWkySU+ +LOBAEtM+/8AnXNJc3w+HgA/6i/gHLjPBcYg/wD/AP8A/wD/AP8A/wD/AP8A/sk3RjqrgIcYKAUA Aqq0AG6rsBus86AycaIJzMH+ZoAxkOCxfx4LRqzOlLpkI3quzIf0Ty9mwttl0TecVvRmXsEYQ8B/ ntoRGveLXbQtSWIxH/4R1W82XTpThZCswSRZsAbqwnk//wD/AP8A/wD/AP8A/wD/AODfbYtSUGI2 4OWdIXqtguQ+YVIXHMnCP/WsJ8e1kziD7elYmENE1K+ztWoAiozMPo4oxICvboYoQ6LRuaFADktk Uc4ndk+D5ku01ZwuhXGMKmnWI61uPA9JfoIHwAPQRmNfV7oI8h76HY7ixG+IF0RdnobKDRIh1Lno L9BA+AGwbuE1n9cHEuTfD4eAD/qF2S/orUWQ7XkZjwPSX6CB8AIGwz9lF+F2p1b2676NRsAwaw2S kcb1DjM2M0j1x4fJ7lVymXGATSljGmfGOC44tSrBfGQoh7DO+vvGbmhPgIRwlcpGlmCIigEvGMoH 00KmDpvYPpF8YUs6VoPYEM/YAE2PqjIdtGUYjSKg0YEUMizJlSYADEiq1cuvQ/8A/wCK01UC/cHP N3kWKFC4hk/z/HcHumelZQCKhFCmxXlW0caHWTCpMH56GCOc8PqvmPElkwZBaBqfYKuAeKPkgG8b 2HW726aVz9YREcdGoJRwHkr7pnpWEAioRQXVY9+N4XSTVp7t6NFA6O1HiHiKxiLNHcsPXch0XJNE ur1smOEmR6TWaTQNKO0RHNYmJCoOQAVMMcs/hJP2O6OP3W51l5r9rSi4rS9mdW9uu+jUbAMDM3k8 mQgBpjshGQVjuIRBrYBDPko0hgQgycu7e3XfZqNgGBeava0ouKwvZgT9h3Rx+a3OnUz2Ov1hpOdi 0CCgugH+y3KYY4/SQA/9QBPeHFu3GJMua9aqV0STiTgUmGtXniVJYkAFShOPh2WnjUpHPdu3bt27 cu7RCzWnDD/JsTZlSx90NL6zEMp6O/FTez59tRapAFHBI9aP/wDgXz3/AAEXXUVwowI35qo+MJQe PzskkTELqNMgPEpMm+Hw8AH/AFAfJCNp8D/vqGLdu3bt27cthpyYldOSBoQoWjKGyoTmGC4/EY4/ eSyx0hEksEa/jtmsBoTB+WYAf/JeKIoiI0jsidieknuXnCAk95YkfxUfBD+kx0CPWNbF5x/D21dO 7du3buuhiHR8+oHz6MrQYYwFvy+dTpzdLqSsYQtwLjduaVHPb/UxWEiQSDz/AAfVxsnwJ3bt27dh ZKsCmjz+tXqp7HAZ1kzl1AqCqFVVVVW8pSWRUSdyspBqjmZOisr0VMnn8eB6S/QQPgArnb28b/dM 8s65QlP4maSShJxWN2yPYFJPFjHbozmQXCJ7W2FuK08+se3YcesuujzB4vdC0aMsOyM7R941QpjZ YbRAkvPx4HpL9BA+ABnDAkTBVkwyGi98ndv2GISBgOPA9JfoIHwAdTMD+jh5IKoPQ59mxt/qC4QW 9kbc83IfnsgDmqf4ghwxvhN2GChP3vgAXUBgylK1H+jECMP8lCPnUBjNfrYOY2MvBjwPSX6CB8AK 2oFLdO/i31AQvxFCuSSH8Ouh6KWs2bjGGgERsanfX6NMCt+XUEYf5KEfOoR4FQFSA3BxAiIrgJsx Em1iEC4QNwG0zcKiL8cRsXeH1NE9ZNH9WqJyf35MK6OwXhg10U6unk/twN0rVfYQeomQ2VZUB+Ct mDkB605a9Sza4vExhWBxTcKzGHacaGbqUXGLsOmVl4zprdTV2CVcHZ6lqg1WItikazDmPg9PjcVS G7M/5qYJpeC5/wC8HAEAUwC4JA7t7dd9Go2AYFIexrfGAIEYICdtu7OPzS79nME1FhWYPMMb8u/f XqJ6PgCd3ysNuRqaPSnNZBONw3Juet6lATdOFylN8Ph4AP8AqCTc+1ZpsTu4FoKAoW3R+2haO2hf wLj0SYtDQY3Ko5/8fpqAN+osWTcp97AZC5iSHa1XGAAEYA6t7dd9mo2AYcIlFd8BfUCxCGHOhkjc I2DDwbteaSLgpgLn278dG84YY4Nknz5DeuLeMy/LrvtV47AJgbXx8OqFDHNO1fhALt7e4HM2mAEE w/H0ecgglzz0jeRKoIMx6QZjRzZyRVwUtF6gHkhURgAxO934eDXVhaBsnsY2ay69iBVKIh6w66wj 4iLis+fG47SalJJuYqRFV6/ltX85t6tM4gn1qgzY1FBa2ooJu4UgVzlTIqvX9olQjVtUE5VbktMr IgNu2AYL2QQiptoqOiuxf4HPZLMCYkh4AHLi5VQMZ8mr+BukPFsyelQeceB6S/QQPgAHNotOyRJj 2CXBifW4cZzimDopcHSKXox3NyKnb01U7aAPaub7IFH8OHgTcxU0RVev5bXAvlY9MYJ2MujeNaZ4 lqvTzHgekv0ED4AF/tlNB3BGo4FVdu+NbCfDE+vG/qj+PzXYt9ImQRiSSEen/wCP01AG/Ub3rUAN 04XKTRkRoTpcmRMVCnEiJhGCmEq9KnEiJhGKEEq9PFhbhcjFd6MfEjNCdJgxQxUDdDan2SeDQ7oD NK36wqsdmPULCq8Y4gFZmWEK22C1jrBqXTY8D0l+ggfAAOuSzlCTeTcBlaymBKFdQsQ2I+wKXLGt z3cNyKcnZ/7dwJhCzIhcVhEyUx4BZJKD1oltEQAEiAgKQKztmjGM5ObcJb2TwigEceB6S/QQPgB+ 8/h60Py759eono+AXJBxWF8o1KaPIwTC/eLOJzyQ+qwoMcULKHCbzT6dxDKUs4RRgF7KBIj+TmGM djwCNUVNO98qXZ9xtg/3cQfAgoX9L4ALkRZXhH0M2uozclJWjk5Ckv7u72sec3OKGxCsrl+9i8Bk un5uedTDsEKkHTjB3y19Orqb4fDwAf8AUCj6E3GW4P8AGHD57SyhMTwwI4D4gM5dA4SzUQ0J39TI WQf5bb2uEqRbJBAgNcAZXGaiZFvmwR+kEMcrAFUBc67gbxAYx+B8WSai1tQKW6d/FvrB27ZO1FTW 26rCGbUPCpHUAUNcaI0KrA9ESiFcgqkV51OVwr+6S7vR4+cFWTIvGq6VsvzRKK7oScolwFKLfy9d KbJ4iBwdPDrWQUQnule1QEF3UicWpdyYWtMhKySVux5Rv2mqFp9c445l/wCdxoKWnqssMG4d96TT 80s+iZx6ptq+w27WdOZQBeiLiMfR4wgw079KdbF8Ri7Ldn6dKeyuCy7FgZZoyw7Iztw/eNMvUV2R 5g09kLjwPSX6CB8AP4zDIUdSu50rJiAIlth8CE9XH9sUAMfIURRERpHZE7E9JlAdTCahGprtcKyb pCJDQfShj3e2NxJo/ARFERGkdkTsT0mWDmZfVINSKijsCaZP1Ck0MB82Y8D0l+ggfAAeb5bdkizH kF8jFYZn33V52INHa/N2rIStQgcBBQq4HwAVN7gtrNmu1HDFlAZk9r7OMf30PT3qCB8AGTxE4Mau YuKvv+vRZsFmRf19XfQ9PeoIHwAkeOqs9xL4oQpcJBWoIHwA99gha43xydrGKxyzMMDYOXvH/IeA ZaYiQwjuz6UDp5lUNDtd09j2PAEqpIAjFSTF3CvAb5ZOyCcJC5JsEXEgxhUNg9zRPLrQGleFIGzL y4Y9CrlB2CLyQYwqGwe5HXlU1+U15IkPkCt2xuX1cN0JGe4kxnIllDvsETE8wUHk2VsScovFugrE poytAaQ6cRlLf1/JZm2WjYQsyWn9Cmj21vBWoyn6sLXurgdCQ4Ra9HqQ1aFLiRmF+zk+fdWPA9Jf oIHwAYWOpl3Op7Y5v1b2676NRsAwd9TEkKi31FThHvQjzgA/SCN6d2kzCF3SUgQk3PlWabEruTfD 4eAD/qEwIJu+4HLuo3d/0Ec3Ldy5lWXYXuhaHuiy39WX+TL1d/Y/XABqGQNuA1dSnBwNc7EXcMTa Xns5Olr/ACIIf8DAY8D0l+ggfACb4fDwAf8AULEEUNG1OFPxZ71Uv4vdTIWYIdkELS3/AH1S4hWt Vq8WAP0kcuyrbXQGIWVJ5hBu15pJuSuAObGNVWC6aMxaKXdvbrvs1GwDDMGKWvC70ha6earyxY9r KoYDDPk40ggQgiciiGORq4dmyrlUAqX287PUC8sLjcT5EuwjZ0hqDmwv+X8jh+ozKKKKMnsojP1F /wB6gkIjE0xySc9Biigwdw618RlPii6gABK4YQEkC/WqZI0B7TodJnPCVNEu7ZPJUhceqEQeMEG2 zWJ79BMkQY4jAjV7QCWqtwUm1ikVzqGseYjiILPtYjt5GeNiFUqFpA8TxFUUvCg4jFClGEhgHdn9 IPTxYqBuFknqarBhGmP/AI/TUAb9QuOpG4B5D5d5JzNxZwe3y3bBmMPkpXm9Q2zNmPA9JfoIHwAs WmUL1PGIv53djMMWAzAfvvC+HlClh2n6r9Pt+H33R/XG+pEVEwbAipgIdVnIVGOus03jQKzRYdUw n0FNhRSzhuO6OMjHH6SAH/qK/nimgrgnUcKXCQVqCB8AK/hwe9sQvgB//wD/APw+Dwl/ggfAD+NQ bP8ApBWSNgYNlg1yuxLH/wD3FVXS40xE9tuiux0PtJRb9v8A/wD/AP8A/wCbBbSv0Cl1SA15O6LX vnKw2rK6TzJ2G1XTRXTLfXMsMPcIimCO7/AUmT3X+kw21ZeNBHH3WX7dQ4KLILFl409Jto8OK03n FZ0blLBmebEPFWCjCMelBnEg9kNMRpKAEICAaQaREREsdmU4Mp9eJpNLA3Ym0wMpn4/mseB6S/QQ PgA99rHNNlgWZ1Lri8/dgNTI11W8vgsUvIRyCHtBAUqo03BzBwKXYCGwcLYBYeXGVRgoA4AMiDzU vfskx2slInpYx2Qf4DePA9JfoIHwAfpcW52oY9g/X7rL9s4ddAUisAETW25koGXa9ynj2y4NaRu3 bt27du3O4+BjwOe6GFjoZcTcU0Ob48D0l+ggfABjQiJgs+gYhTuiRgmF+8WcTnrXfanCJgV/Hfw6 ncXI1zASI6/nSUi/xn8AoeEn6PE8entb7/GOA57o3bt27du3GEG8FvcRzZXcIxExjIY6CTSRHX86 SlX+tn/v4dTuLka5gLXfanCJgV/CJnLABUEACqoAKtYij+Uql9ZY7NP6BFVTyiYUWEhYUl+xkZfv pfVGymQxcpAR8ipRRRRRWm+Bd55OcfudWHGrqZHuIAwkD48SR7XRed38eHXThKkLIe4ivrz5m5jB 7KF52EYbMiKq7d8S2E+HJvoFgkiWsQuFo0sq7A2MESCSNxCCIeoWmmJ8IhMuD0jszwBSdb+9/qMx JWmfUaHusEkhBHrFEztY2xRRRRRQ5KJA+3G/A7I8v60ZnGBEaMHEGtXM/D7nGSrcnhJxaFZA9QZs uhAAnbNwQtTwnozI7QNQaLEkgq7Skc42anBIoKem6Fo20wS+bWMVdo7lkmSX5eq6KqkhWf8A1V09 V8S7Ore3XfYqNwGGXo3EJ6AFKXhea9Y0o+KwvTHVjbx07H5is6t7dd9io3AYDQZt+W63sscQuUuU 7qdkOyYApxIiYRgpxEq9P/x+moA36ju3t130KjcBhmf/AHVU/V8S7HJEedMGOV9xM5Z+iEk3AQHm Q7QRBaqDN4Mwuq2n8Fil5CfgQS9CC+lUQDyF/bhsPIB/1H//AP8A/wD/AP8A/wD/AJwv79evno+A AQFUUUFg5c4DIARenH+y/wBcjgJcUFUJYtkyZpIJDiZW6i2QEDHH6SAH/qFbR6cwTUCtojdESx4d iH2WskbLdmcZtPvnFiFYm6a4MGTDL4rOY6vHPg1KmUYgWvotJP8AhHJDagfhlzarR9LmyAn97f8A /wD/AP8A/wD/AP8A/wD6plHIl97ia6RTH6PUOdFv7DEoMhgvoBfEzhByGZeJVCb3B/P5N3m9NVT5 GxN2GChP3vgAYWiNH2UKiD48D0l+ggfABhbC5NbyL4TIYh++hgJBEwbefqjwNfiwkooooooooopX OaPyAXdR+VLv32veVAOqboq0UTN+5CCGYBGgtsoDUk6RUEotrvPRkN2DHT6gtpAbg4UrOfISq5jv rBFBqBY2I5hdSnWby9TqsRhl4KgCq0Buq9Ae1+BV+vX8gREJPivwo98+17x/t8XAB/1BRRRRRRRR RRSg3I2nxt9nF/lPAc8juKYukKCKT6SLuE8MhbssXXyIc5TQAtGGiAPnvgA0G77N4ty+QLn8ZhkK OpXc6bfmCmtCH+EnsIHAQUKuB8AIhuaziYyCvYBl/TBfFN+aJna9ztEGaWn6UlsNOCN+GxX59Fbv 5WYSso66Wdbrsz/v8NQlAwf/AEI+Ae6cd9jBkwToh7oD5zv0gru6rmVAkZIh/rixiveLsrYWJ5uR /CYKniTFP8oHjhx4HpL9BA+ACRsL6zDNodsc/K/a9zN4poYDmxOy0yDfm1vH4+a78NFueNKVu/pa QS39EzpZM27Hgekv0ED4Ad8T3leggfADIxJTVKAxP1Emd+Hh388UxqJ1CPZCKxIBhu97d8d+XHCZ CaiIRtM3Op+DanxEI4hZklIMYnRw7YZa6HYc44Jg+WDHdtpTmD42OOtb5Dr/ALip+d+uoZqhafXO OOZf+d8ySxjAQL4NT63fxQCVRWOXnw46mTO8pn28m8N1jo/nWmIWr0NGT5WQbRnpIlVWlBKzm6bG Ia4EdJUucZtPvgHM+VNIYEOInJ8OqFDHNO1fnd3MwxYDMB++FDFfhcO42svNjwPSX6CB8AMeB6S/ QQPgAjhHC2wXDfhCM6UB8vDWuM4x+7+I1lMOmQeWxN8QS9ei+1s1SMqU2Axx0MgWnN8Ph4AP+oIT ekms/Kg6tx6kPk4nLwrtsKPibq4CpsL+Aoq3iMq2ogcmrwVcegtjB+J/hfte5m0U0MApty6VPMxf XvJ3OI7mHTmO4Acw/wAdc43B7ycmPA9JfoIHwAZBfIrTuUthUAIQEA0g0iIiJY7OMM2WRZeMkrxs Ud4fiowmNI64QgqkQmt0AyYfHgekv0ED4AERE9IGO744fkPh4NpAV9WdTBjQiIgs/k4hSuhT3Pln V2ZWhu4/wSGaOGqS3fQ7HcWI3xAGYdvZ11Jv/j+/ocPJQvOWINmQJ+uWzPIM6a3B1WGFqPts0n4U uEgrUED4AHOJfL9n4dV4yVk/UmAtDMHbEAJYgKx87JDNekFd3dtnag24nchChhMX49eN/HH8fmuz q3t132KjcBh8gO5MqaTCQ4yVkjIa4zGIp184ZktO6BN/TfkjLAAM3Px3Heh84k2ubbF82rCD4EFC /pfADSZ2/ZYhOWEmMdOrRXz5uB8Lp+lHkP8A/9k= "
     id="image10"
     x="0"
     y="0" />
  <path
     style="fill:#000000;stroke-width:0.99999994"
     d="m 131.01063,325.82732 c 0,0 -21.85864,11.16228 -41.73063,22.52992 V 301.44 H 45.017291 c -38.9751479,0 -44.19661534,-0.17224 -43.7094286,-1.44182 L 43.826919,224.2338 4.847214,200.64 44.16,176.65192 1.2301903,101.07942 c 0,0 48.9139547,-1.23942 88.0162687,-1.23942 L 89.76,53.041643 130.97016,74.657657 174.77898,0.00176502 220.35796,75.478274 C 234.55671,67.687883 245.21655,61.472666 260.16,52.913205 v 46.907806 c 29.62306,0.166336 59.24612,0.332659 88.86918,0.498989 L 305.28,176.69796 344.61183,200.64 305.28408,224.49482 c 15.12495,27.13915 27.09153,47.5596 43.77392,76.46518 l -44.449,0.24949 -44.449,0.2495 -0.60462,46.06101 c 0,0 -23.81786,-15.05773 -38.89942,-21.60392 l -45.91921,75.34991 z M 217.92484,301.92 c -4.86599,0.17166 -10.04909,-1.06453 -14.84701,-0.14736 L 174.72,348.436 146.40049,301.78735 c -5.22478,-0.45502 -9.27402,-0.0962 -14.72857,0.13265 l 43.05241,74.38241 c 16.86419,-28.00529 29.02993,-49.58588 43.20051,-74.38241 z m -94.16065,12.34106 c -2.38943,-4.11369 -4.77888,-8.22738 -7.16833,-12.34106 L 101.76,301.35924 c 0.2923,8.29108 -0.4967,16.86713 0.36587,25.04076 7.73911,-4.10405 13.49095,-7.48973 21.63832,-12.13894 z M 247.68,301.35924 232.9283,301.92 c -1.70268,3.79786 -6.10379,11.76458 -6.10379,11.76458 0.18805,1.05121 18.22176,12.34986 20.13549,12.61548 0,0 0.72,-15.47325 0.72,-24.94082 z m -41.3139,-33.23665 -8.3057,-11.5861 -23.31405,39.14351 -24.04476,-40.28966 c -0.38773,-0.0236 -6.08459,9.54928 -7.45109,12.52064 l 31.49083,54.63841 c 9.64632,-17.72503 31.62477,-54.4268 31.62477,-54.4268 z M 108.42111,287.76 c -2.01457,-4.79904 -4.33458,-8.10969 -7.18742,-12.72 L 47.04,273.95549 72.96,226.82532 c 0,-2.0182 -6.900653,-12.95088 -7.648428,-12.11737 -1.15795,1.29068 -32.84,55.54344 -42.940605,73.53205 z m 30.61889,0.46249 c -2.41105,-4.55074 -4.36259,-7.97501 -7.00318,-12.70249 H 116.0034 c 2.58581,4.37817 5.24611,8.71196 7.84357,13.08305 z M 233.26262,276 217.61975,275.71669 c -2.93878,4.77855 -3.75968,6.40882 -7.56303,13.24331 h 15.43689 c 2.58968,-4.32 5.17934,-8.64 7.76901,-12.96 z m 50.46637,-61.92 c -0.62494,0 -7.24899,11.70262 -7.24899,12.80671 8.88275,17.14894 16.47314,29.7659 26.76462,47.64404 -18.34478,0.16974 -36.68955,0.3395 -55.03433,0.50925 -2.36839,4.39272 -5.36683,8.59699 -7.25029,13.19572 30.43214,1.10596 53.66162,0.72428 86.46756,0.72428 z M 187.2,249.31761 l -24.96,-0.0443 c 0,0.99033 11.93663,21.4306 12.51994,21.43912 4.37381,-7.33548 12.44006,-21.3948 12.44006,-21.3948 z m -48,-0.15508 -47.04,-1.05422 22.81331,-41.09102 L 100.82724,206.4 c -10.228202,18.12163 -31.371476,54.2697 -31.371476,54.2697 0,0 33.921066,1.4103 62.615286,1.4103 2.32197,-4.31391 5.15902,-8.44955 7.12895,-12.91747 z M 279.91719,260.495 c -10.43338,-18.02016 -20.08398,-36.54339 -31.30443,-54.095 -4.61191,0.35779 -10.1103,-0.68075 -14.37276,0.59611 l 23.04,41.04778 -46.88,1.33362 c 2.41105,4.55074 4.36259,7.97501 7.00318,12.70249 z M 139.2,235.55798 c 0,-1.04429 -11.97118,-21.4444 -12.59409,-21.46159 C 125.8921,214.07669 114.24,234.0474 114.24,235.29052 Z m 75.84,-34.93865 c -6.33944,-12.89207 -12.06594,-22.25088 -19.68,-35.50388 -13.75037,0.16151 -27.50075,0.32303 -41.25112,0.48455 l -19.67069,34.84624 c -0.0341,1.11253 17.07961,31.53357 19.41609,34.51376 l 41.50572,1.16545 z m 7.83598,13.48567 c -0.56251,0.0221 -11.65979,18.83258 -12.47598,21.14743 0,0 14.99086,0.0574 25.09948,0.0574 -5.13527,-7.3004 -12.6235,-21.20483 -12.6235,-21.20483 z M 58.012656,200.64 C 55.70274,196.92628 54.226399,192.42049 51.330108,189.12279 50.432221,188.35258 29.776367,199.39221 29.7807,200.64 c 0.0041,1.18906 20.710446,12.19428 21.5793,11.4692 2.771098,-3.82632 4.347858,-7.15 6.652656,-11.4692 z m 30.436951,-0.0637 c -2.568264,-3.99803 -4.402606,-9.07109 -7.652115,-12.41628 -3.358224,4.00471 -5.116485,7.66399 -7.886408,12.48 2.643583,4.0235 4.56617,9.07481 7.850768,12.48 3.269421,-4.05182 4.983805,-7.70861 7.687755,-12.54372 z m 188.124353,0.0638 c -2.58685,-4.0139 -4.43374,-9.20272 -7.77396,-12.48006 -3.39203,3.95335 -5.07652,7.65651 -7.77396,12.48 2.58683,4.0139 4.43374,9.20268 7.77396,12.48 3.31522,-3.94787 5.22091,-7.91465 7.77396,-12.47994 z m 37.08765,3.93747 c 3.28989,-1.90161 5.98989,-3.68945 6,-3.973 -8.58778,-5.76595 -12.39676,-7.70181 -20.95987,-12.52939 -2.25717,4.16601 -5.17388,8.16217 -6.86174,12.56491 2.01954,4.67342 4.16128,7.95727 6.86805,12.57567 5.00598,-2.89028 10.21288,-5.89807 14.95356,-8.6382 z M 114.98123,193.67288 c 0,0 -15.624245,-25.93865 -22.82123,-40.61075 l 47.04,-1.05731 c -2.20912,-4.70107 -4.34264,-8.0588 -7.11893,-12.80482 L 69.12,139.70003 c 0,0.27501 6.955421,12.58701 15.456491,27.36 L 100.03298,193.92 c 4.94485,-0.28454 14.94825,-0.24712 14.94825,-0.24712 z M 280.2975,139.92 c 0.0124,-0.396 -14.14148,-0.72 -31.45303,-0.72 h -31.47552 c -2.32197,4.31391 -5.15902,8.44955 -7.12895,12.91747 l 47.04,1.06944 c 0,0.44823 -4.79228,8.87998 -22.76468,40.05323 0,0 9.47339,0.4073 15.30052,0.19986 9.54065,-18.12771 21.56112,-35.08553 30.48166,-53.52 z M 72.96,174.29051 c -8.023419,-17.14999 -17.144551,-29.1833 -25.92,-47.06939 0,-0.27562 7.452,-0.50309 16.56,-0.50549 9.108,-0.002 31.397925,-0.49628 37.32379,-0.83774 L 108.48,113.2112 22.380615,113.04 C 43.860604,150.40297 65.412332,187.2 65.815535,187.2 68.296144,182.97231 72.96,174.29051 72.96,174.29051 Z m 66.24,-8.66819 -24.79039,0.69768 c 0,0 11.51587,20.88065 12.17167,20.86909 z M 235.93936,165.6 c -8.30857,0.64174 -25.40578,-0.13358 -25.40578,-0.13358 -0.63884,0.63885 11.6176,21.68296 12.4848,21.43617 5.10364,-7.18673 8.23474,-13.1667 12.92098,-21.30259 z m 91.39211,-52.8 -86.15186,-0.0596 c 1.62357,4.76252 3.80138,8.02531 6.42715,12.72062 L 302.4,127.32413 c 0,0 -17.7131,27.98656 -25.48129,45.71731 -0.39005,1.01645 6.1511,15.07071 6.1511,15.07071 14.97465,-24.97609 29.63517,-50.13142 44.26166,-75.31215 z M 187.2,151.94931 c 0,-1.12518 -11.79304,-21.38931 -12.44786,-21.38931 -0.61963,0 -12.51214,20.41923 -12.51214,21.48313 8.55374,0.45152 24.96,-0.0938 24.96,-0.0938 z M 174.7843,105.6 198.07266,144.76353 206.4,132.84671 174.74133,78.72922 c -0.70425,0.01295 -31.22133,52.99112 -31.22133,54.20077 0,1.61747 6.63766,12.85756 7.33743,12.42507 z m -35.7443,7.44 c -5.14404,-1.11578 -9.31351,-0.72 -15.0434,-0.72 -2.95394,4.95135 -5.20229,8.73309 -7.9932,13.44 5.3322,-0.008 10.6644,-0.0152 15.9966,-0.0228 2.42158,-4.37869 4.66149,-8.17326 7.04,-12.6972 z m 86.60227,-0.45153 c -5.0962,-0.41544 -7.65923,-0.26847 -15.45158,-0.26847 2.53128,5.03253 4.85294,8.8355 7.7534,13.44 h 15.47682 z M 123.66134,86.840828 C 116.37596,83.248991 102.26232,74.88 102.26232,74.88 101.49698,83.637414 101.76,90.371548 101.76,99.84 h 14.37591 c 2.78267,-4.243127 5.48346,-9.04356 7.52543,-12.999172 z M 174.72,52.829216 203.33655,100.58406 c 0,0 7.57123,-0.954205 14.64042,-1.22406 L 174.75553,24.968887 c -16.43864,27.091555 -29.8166,50.92011 -43.4226,74.951782 5.32974,-0.186883 10.65949,-0.373776 15.98923,-0.560669 z M 247.29543,74.88 c -1.27793,0 -20.73543,11.849352 -20.73543,12.627601 0,0.936522 5.54034,10.281646 7.3181,12.620199 0,0 7.90425,-0.2878 13.8019,-0.2878 -0.30552,-8.258759 0.52021,-16.829647 -0.38457,-24.96 z"
     id="path817"
     inkscape:connector-curvature="0"
     sodipodi:nodetypes="cccsccccccccccccccccccccccccccccccccccccccccccccccccccccccccccccccccccccccccccccscccccsccccccccscccccccccccccccccccccccccccccccccccccccccccccccccccccscccccccccccccccccccccsccccccccccccccccccccccccccccccccccccc" />
</svg>
